info face="Becker Black NF" size=100 bold=0 italic=0 charset="" unicode=1 stretchH=100 smooth=1 aa=1 padding=3,3,3,3 spacing=3,3 outline=4
common lineHeight=100 base=79 scaleW=1024 scaleH=1024 pages=1 packed=0 alphaChnl=1 redChnl=0 greenChnl=0 blueChnl=0
page id=0 file="Beckers_0.png"
chars count=184
char id=32   x=995   y=183   width=17    height=15    xoffset=-8    yoffset=92    xadvance=24    page=0  chnl=15
char id=33   x=257   y=361   width=32    height=77    xoffset=-7    yoffset=11    xadvance=19    page=0  chnl=15
char id=34   x=43    y=887   width=42    height=31    xoffset=-6    yoffset=10    xadvance=30    page=0  chnl=15
char id=35   x=589   y=588   width=54    height=74    xoffset=-7    yoffset=12    xadvance=41    page=0  chnl=15
char id=36   x=975   y=348   width=46    height=75    xoffset=-7    yoffset=11    xadvance=32    page=0  chnl=15
char id=37   x=124   y=443   width=103   height=75    xoffset=-7    yoffset=12    xadvance=89    page=0  chnl=15
char id=38   x=777   y=272   width=78    height=77    xoffset=-7    yoffset=11    xadvance=64    page=0  chnl=15
char id=39   x=166   y=880   width=30    height=31    xoffset=-6    yoffset=10    xadvance=18    page=0  chnl=15
char id=40   x=788   y=96    width=47    height=87    xoffset=-6    yoffset=10    xadvance=35    page=0  chnl=15
char id=41   x=737   y=96    width=48    height=87    xoffset=-7    yoffset=10    xadvance=34    page=0  chnl=15
char id=42   x=964   y=796   width=36    height=34    xoffset=-6    yoffset=10    xadvance=24    page=0  chnl=15
char id=43   x=257   y=812   width=57    height=55    xoffset=-7    yoffset=23    xadvance=43    page=0  chnl=15
char id=44   x=892   y=798   width=33    height=38    xoffset=-7    yoffset=57    xadvance=19    page=0  chnl=15
char id=45   x=235   y=877   width=35    height=29    xoffset=-7    yoffset=36    xadvance=22    page=0  chnl=15
char id=46   x=131   y=887   width=32    height=31    xoffset=-6    yoffset=57    xadvance=19    page=0  chnl=15
char id=47   x=188   y=278   width=45    height=80    xoffset=-6    yoffset=12    xadvance=32    page=0  chnl=15
char id=48   x=629   y=354   width=77    height=76    xoffset=-7    yoffset=11    xadvance=64    page=0  chnl=15
char id=49   x=911   y=585   width=42    height=74    xoffset=-7    yoffset=12    xadvance=29    page=0  chnl=15
char id=50   x=470   y=589   width=57    height=74    xoffset=-6    yoffset=12    xadvance=45    page=0  chnl=15
char id=51   x=757   y=587   width=52    height=74    xoffset=-6    yoffset=12    xadvance=40    page=0  chnl=15
char id=52   x=311   y=436   width=72    height=75    xoffset=-7    yoffset=11    xadvance=59    page=0  chnl=15
char id=53   x=530   y=589   width=56    height=74    xoffset=-6    yoffset=12    xadvance=43    page=0  chnl=15
char id=54   x=847   y=352   width=62    height=76    xoffset=-7    yoffset=11    xadvance=49    page=0  chnl=15
char id=55   x=409   y=589   width=58    height=74    xoffset=-6    yoffset=12    xadvance=46    page=0  chnl=15
char id=56   x=912   y=351   width=60    height=76    xoffset=-7    yoffset=11    xadvance=46    page=0  chnl=15
char id=57   x=782   y=352   width=62    height=76    xoffset=-7    yoffset=11    xadvance=49    page=0  chnl=15
char id=58   x=375   y=808   width=33    height=53    xoffset=-7    yoffset=35    xadvance=19    page=0  chnl=15
char id=59   x=988   y=653   width=33    height=60    xoffset=-7    yoffset=35    xadvance=19    page=0  chnl=15
char id=60   x=62    y=443   width=59    height=76    xoffset=-7    yoffset=15    xadvance=46    page=0  chnl=15
char id=61   x=513   y=802   width=57    height=46    xoffset=-7    yoffset=27    xadvance=61    page=0  chnl=15
char id=62   x=0     y=444   width=59    height=76    xoffset=-7    yoffset=15    xadvance=46    page=0  chnl=15
char id=63   x=0     y=364   width=57    height=77    xoffset=-7    yoffset=11    xadvance=43    page=0  chnl=15
char id=64   x=696   y=272   width=78    height=77    xoffset=-7    yoffset=10    xadvance=65    page=0  chnl=15
char id=65   x=714   y=510   width=71    height=74    xoffset=-6    yoffset=12    xadvance=59    page=0  chnl=15
char id=66   x=934   y=508   width=69    height=74    xoffset=-7    yoffset=12    xadvance=55    page=0  chnl=15
char id=67   x=281   y=596   width=63    height=74    xoffset=-7    yoffset=12    xadvance=50    page=0  chnl=15
char id=68   x=636   y=510   width=75    height=74    xoffset=-7    yoffset=12    xadvance=61    page=0  chnl=15
char id=69   x=212   y=598   width=66    height=74    xoffset=-7    yoffset=12    xadvance=52    page=0  chnl=15
char id=70   x=0     y=600   width=69    height=74    xoffset=-7    yoffset=12    xadvance=55    page=0  chnl=15
char id=71   x=143   y=599   width=66    height=74    xoffset=-7    yoffset=12    xadvance=52    page=0  chnl=15
char id=72   x=788   y=508   width=70    height=74    xoffset=-7    yoffset=12    xadvance=57    page=0  chnl=15
char id=73   x=866   y=585   width=42    height=74    xoffset=-7    yoffset=12    xadvance=29    page=0  chnl=15
char id=74   x=456   y=434   width=52    height=75    xoffset=-6    yoffset=12    xadvance=40    page=0  chnl=15
char id=75   x=162   y=521   width=77    height=74    xoffset=-7    yoffset=12    xadvance=64    page=0  chnl=15
char id=76   x=646   y=587   width=53    height=74    xoffset=-7    yoffset=12    xadvance=40    page=0  chnl=15
char id=77   x=664   y=433   width=95    height=74    xoffset=-7    yoffset=12    xadvance=82    page=0  chnl=15
char id=78   x=861   y=508   width=70    height=74    xoffset=-7    yoffset=12    xadvance=56    page=0  chnl=15
char id=79   x=549   y=354   width=77    height=76    xoffset=-7    yoffset=11    xadvance=64    page=0  chnl=15
char id=80   x=322   y=514   width=76    height=74    xoffset=-7    yoffset=12    xadvance=62    page=0  chnl=15
char id=81   x=354   y=274   width=80    height=78    xoffset=-7    yoffset=11    xadvance=66    page=0  chnl=15
char id=82   x=852   y=431   width=80    height=74    xoffset=-7    yoffset=12    xadvance=66    page=0  chnl=15
char id=83   x=812   y=585   width=51    height=74    xoffset=-7    yoffset=12    xadvance=38    page=0  chnl=15
char id=84   x=347   y=591   width=59    height=74    xoffset=-7    yoffset=12    xadvance=46    page=0  chnl=15
char id=85   x=386   y=434   width=67    height=75    xoffset=-7    yoffset=12    xadvance=53    page=0  chnl=15
char id=86   x=242   y=519   width=77    height=74    xoffset=-7    yoffset=12    xadvance=63    page=0  chnl=15
char id=87   x=561   y=433   width=100   height=74    xoffset=-7    yoffset=12    xadvance=86    page=0  chnl=15
char id=88   x=935   y=430   width=79    height=74    xoffset=-7    yoffset=12    xadvance=65    page=0  chnl=15
char id=89   x=81    y=522   width=78    height=74    xoffset=-7    yoffset=12    xadvance=65    page=0  chnl=15
char id=90   x=72    y=600   width=68    height=74    xoffset=-6    yoffset=12    xadvance=56    page=0  chnl=15
char id=91   x=146   y=279   width=39    height=81    xoffset=-7    yoffset=12    xadvance=25    page=0  chnl=15
char id=92   x=236   y=278   width=45    height=80    xoffset=-6    yoffset=12    xadvance=32    page=0  chnl=15
char id=93   x=104   y=279   width=39    height=81    xoffset=-7    yoffset=12    xadvance=61    page=0  chnl=15
char id=95   x=316   y=870   width=52    height=21    xoffset=-7    yoffset=72    xadvance=39    page=0  chnl=15
char id=96   x=0     y=887   width=40    height=32    xoffset=-6    yoffset=3     xadvance=28    page=0  chnl=15
char id=97   x=405   y=735   width=61    height=64    xoffset=-6    yoffset=22    xadvance=49    page=0  chnl=15
char id=98   x=533   y=733   width=60    height=64    xoffset=-7    yoffset=22    xadvance=47    page=0  chnl=15
char id=99   x=840   y=731   width=55    height=64    xoffset=-7    yoffset=22    xadvance=41    page=0  chnl=15
char id=100  x=273   y=743   width=65    height=64    xoffset=-7    yoffset=22    xadvance=51    page=0  chnl=15
char id=101  x=720   y=731   width=57    height=64    xoffset=-7    yoffset=22    xadvance=44    page=0  chnl=15
char id=102  x=658   y=732   width=59    height=64    xoffset=-6    yoffset=22    xadvance=47    page=0  chnl=15
char id=103  x=780   y=731   width=57    height=64    xoffset=-7    yoffset=22    xadvance=44    page=0  chnl=15
char id=104  x=341   y=741   width=61    height=64    xoffset=-7    yoffset=22    xadvance=48    page=0  chnl=15
char id=105  x=98    y=820   width=38    height=64    xoffset=-7    yoffset=22    xadvance=24    page=0  chnl=15
char id=106  x=335   y=673   width=47    height=65    xoffset=-7    yoffset=22    xadvance=33    page=0  chnl=15
char id=107  x=779   y=664   width=67    height=64    xoffset=-7    yoffset=22    xadvance=53    page=0  chnl=15
char id=108  x=0     y=820   width=47    height=64    xoffset=-7    yoffset=22    xadvance=33    page=0  chnl=15
char id=109  x=473   y=666   width=82    height=64    xoffset=-7    yoffset=22    xadvance=68    page=0  chnl=15
char id=110  x=469   y=735   width=61    height=64    xoffset=-7    yoffset=22    xadvance=47    page=0  chnl=15
char id=111  x=150   y=676   width=67    height=66    xoffset=-7    yoffset=21    xadvance=53    page=0  chnl=15
char id=112  x=69    y=753   width=65    height=64    xoffset=-7    yoffset=22    xadvance=52    page=0  chnl=15
char id=113  x=78    y=677   width=69    height=67    xoffset=-7    yoffset=21    xadvance=55    page=0  chnl=15
char id=114  x=637   y=665   width=68    height=64    xoffset=-6    yoffset=22    xadvance=56    page=0  chnl=15
char id=115  x=50    y=820   width=45    height=64    xoffset=-7    yoffset=22    xadvance=32    page=0  chnl=15
char id=116  x=898   y=729   width=52    height=64    xoffset=-7    yoffset=22    xadvance=38    page=0  chnl=15
char id=117  x=956   y=585   width=58    height=65    xoffset=-7    yoffset=22    xadvance=45    page=0  chnl=15
char id=118  x=919   y=662   width=66    height=64    xoffset=-7    yoffset=22    xadvance=53    page=0  chnl=15
char id=119  x=385   y=668   width=85    height=64    xoffset=-7    yoffset=22    xadvance=72    page=0  chnl=15
char id=120  x=708   y=664   width=68    height=64    xoffset=-7    yoffset=22    xadvance=55    page=0  chnl=15
char id=121  x=849   y=662   width=67    height=64    xoffset=-7    yoffset=22    xadvance=54    page=0  chnl=15
char id=122  x=596   y=733   width=59    height=64    xoffset=-6    yoffset=22    xadvance=47    page=0  chnl=15
char id=123  x=954   y=183   width=38    height=82    xoffset=-7    yoffset=12    xadvance=24    page=0  chnl=15
char id=125  x=0     y=279   width=37    height=82    xoffset=-7    yoffset=12    xadvance=24    page=0  chnl=15
char id=161  x=222   y=361   width=32    height=77    xoffset=-7    yoffset=20    xadvance=19    page=0  chnl=15
char id=162  x=511   y=433   width=47    height=75    xoffset=-7    yoffset=11    xadvance=33    page=0  chnl=15
char id=163  x=702   y=587   width=52    height=74    xoffset=-7    yoffset=12    xadvance=38    page=0  chnl=15
char id=164  x=709   y=352   width=70    height=76    xoffset=-6    yoffset=11    xadvance=58    page=0  chnl=15
char id=165  x=0     y=523   width=78    height=74    xoffset=-7    yoffset=12    xadvance=65    page=0  chnl=15
char id=167  x=220   y=675   width=112   height=65    xoffset=-7    yoffset=16    xadvance=98    page=0  chnl=15
char id=168  x=273   y=870   width=40    height=25    xoffset=-7    yoffset=9     xadvance=26    page=0  chnl=15
char id=169  x=0     y=677   width=75    height=73    xoffset=-7    yoffset=12    xadvance=61    page=0  chnl=15
char id=170  x=464   y=802   width=46    height=48    xoffset=-6    yoffset=10    xadvance=33    page=0  chnl=15
char id=171  x=667   y=799   width=43    height=42    xoffset=-6    yoffset=28    xadvance=31    page=0  chnl=15
char id=172  x=833   y=798   width=56    height=38    xoffset=-6    yoffset=36    xadvance=61    page=0  chnl=15
char id=174  x=749   y=798   width=43    height=41    xoffset=-7    yoffset=10    xadvance=29    page=0  chnl=15
char id=176  x=620   y=800   width=44    height=42    xoffset=-7    yoffset=11    xadvance=30    page=0  chnl=15
char id=177  x=139   y=814   width=57    height=63    xoffset=-7    yoffset=23    xadvance=43    page=0  chnl=15
char id=178  x=795   y=798   width=35    height=41    xoffset=-7    yoffset=10    xadvance=21    page=0  chnl=15
char id=179  x=713   y=799   width=33    height=42    xoffset=-7    yoffset=10    xadvance=19    page=0  chnl=15
char id=180  x=88    y=887   width=40    height=31    xoffset=-6    yoffset=3     xadvance=28    page=0  chnl=15
char id=181  x=199   y=814   width=55    height=60    xoffset=-7    yoffset=36    xadvance=42    page=0  chnl=15
char id=182  x=0     y=192   width=61    height=84    xoffset=-7    yoffset=11    xadvance=47    page=0  chnl=15
char id=183  x=199   y=877   width=33    height=30    xoffset=-7    yoffset=35    xadvance=19    page=0  chnl=15
char id=184  x=928   y=796   width=33    height=36    xoffset=-4    yoffset=70    xadvance=24    page=0  chnl=15
char id=185  x=992   y=268   width=28    height=41    xoffset=-7    yoffset=10    xadvance=14    page=0  chnl=15
char id=186  x=411   y=802   width=50    height=48    xoffset=-7    yoffset=11    xadvance=36    page=0  chnl=15
char id=187  x=573   y=800   width=44    height=42    xoffset=-7    yoffset=28    xadvance=31    page=0  chnl=15
char id=188  x=466   y=354   width=80    height=76    xoffset=-7    yoffset=10    xadvance=66    page=0  chnl=15
char id=189  x=292   y=357   width=88    height=76    xoffset=-6    yoffset=10    xadvance=75    page=0  chnl=15
char id=190  x=383   y=355   width=80    height=76    xoffset=-7    yoffset=10    xadvance=66    page=0  chnl=15
char id=191  x=60    y=363   width=57    height=77    xoffset=-7    yoffset=19    xadvance=43    page=0  chnl=15
char id=192  x=461   y=0     width=71    height=93    xoffset=-6    yoffset=-7    xadvance=59    page=0  chnl=15
char id=193  x=535   y=0     width=71    height=93    xoffset=-6    yoffset=-7    xadvance=59    page=0  chnl=15
char id=194  x=0     y=97    width=71    height=92    xoffset=-6    yoffset=-6    xadvance=59    page=0  chnl=15
char id=195  x=377   y=96    width=71    height=88    xoffset=-6    yoffset=-2    xadvance=59    page=0  chnl=15
char id=196  x=594   y=96    width=71    height=87    xoffset=-6    yoffset=-1    xadvance=59    page=0  chnl=15
char id=197  x=143   y=97    width=71    height=91    xoffset=-6    yoffset=-5    xadvance=59    page=0  chnl=15
char id=198  x=762   y=431   width=87    height=74    xoffset=-6    yoffset=12    xadvance=75    page=0  chnl=15
char id=199  x=817   y=0     width=63    height=93    xoffset=-7    yoffset=12    xadvance=50    page=0  chnl=15
char id=200  x=679   y=0     width=66    height=93    xoffset=-7    yoffset=-7    xadvance=52    page=0  chnl=15
char id=201  x=748   y=0     width=66    height=93    xoffset=-7    yoffset=-7    xadvance=52    page=0  chnl=15
char id=202  x=74    y=97    width=66    height=92    xoffset=-7    yoffset=-6    xadvance=52    page=0  chnl=15
char id=203  x=668   y=96    width=66    height=87    xoffset=-7    yoffset=-1    xadvance=52    page=0  chnl=15
char id=204  x=928   y=0     width=42    height=93    xoffset=-7    yoffset=-7    xadvance=29    page=0  chnl=15
char id=205  x=883   y=0     width=42    height=93    xoffset=-7    yoffset=-7    xadvance=29    page=0  chnl=15
char id=206  x=973   y=0     width=47    height=92    xoffset=-9    yoffset=-6    xadvance=29    page=0  chnl=15
char id=207  x=838   y=96    width=42    height=87    xoffset=-7    yoffset=-1    xadvance=29    page=0  chnl=15
char id=208  x=480   y=512   width=75    height=74    xoffset=-7    yoffset=12    xadvance=61    page=0  chnl=15
char id=209  x=451   y=96    width=70    height=88    xoffset=-7    yoffset=-2    xadvance=56    page=0  chnl=15
char id=210  x=80    y=0     width=77    height=94    xoffset=-7    yoffset=-7    xadvance=64    page=0  chnl=15
char id=211  x=0     y=0     width=77    height=94    xoffset=-7    yoffset=-7    xadvance=64    page=0  chnl=15
char id=212  x=381   y=0     width=77    height=93    xoffset=-7    yoffset=-6    xadvance=64    page=0  chnl=15
char id=213  x=217   y=97    width=77    height=89    xoffset=-7    yoffset=-2    xadvance=64    page=0  chnl=15
char id=214  x=297   y=97    width=77    height=88    xoffset=-7    yoffset=-1    xadvance=64    page=0  chnl=15
char id=215  x=317   y=810   width=55    height=54    xoffset=-6    yoffset=23    xadvance=61    page=0  chnl=15
char id=216  x=401   y=512   width=76    height=74    xoffset=-7    yoffset=12    xadvance=63    page=0  chnl=15
char id=217  x=230   y=0     width=67    height=94    xoffset=-7    yoffset=-7    xadvance=53    page=0  chnl=15
char id=218  x=160   y=0     width=67    height=94    xoffset=-7    yoffset=-7    xadvance=53    page=0  chnl=15
char id=219  x=609   y=0     width=67    height=93    xoffset=-7    yoffset=-6    xadvance=53    page=0  chnl=15
char id=220  x=524   y=96    width=67    height=88    xoffset=-7    yoffset=-1    xadvance=53    page=0  chnl=15
char id=221  x=300   y=0     width=78    height=93    xoffset=-7    yoffset=-7    xadvance=65    page=0  chnl=15
char id=222  x=558   y=511   width=75    height=74    xoffset=-7    yoffset=12    xadvance=62    page=0  chnl=15
char id=223  x=230   y=441   width=78    height=75    xoffset=-7    yoffset=11    xadvance=65    page=0  chnl=15
char id=224  x=384   y=187   width=61    height=83    xoffset=-6    yoffset=3     xadvance=49    page=0  chnl=15
char id=225  x=448   y=187   width=61    height=83    xoffset=-6    yoffset=3     xadvance=49    page=0  chnl=15
char id=226  x=781   y=186   width=61    height=82    xoffset=-6    yoffset=4     xadvance=49    page=0  chnl=15
char id=227  x=571   y=273   width=61    height=78    xoffset=-6    yoffset=8     xadvance=49    page=0  chnl=15
char id=228  x=928   y=268   width=61    height=77    xoffset=-6    yoffset=9     xadvance=49    page=0  chnl=15
char id=229  x=40    y=279   width=61    height=81    xoffset=-6    yoffset=5     xadvance=49    page=0  chnl=15
char id=230  x=558   y=666   width=76    height=64    xoffset=-7    yoffset=22    xadvance=62    page=0  chnl=15
char id=231  x=186   y=191   width=55    height=84    xoffset=-7    yoffset=22    xadvance=41    page=0  chnl=15
char id=232  x=633   y=186   width=57    height=83    xoffset=-7    yoffset=3     xadvance=44    page=0  chnl=15
char id=233  x=573   y=187   width=57    height=83    xoffset=-7    yoffset=3     xadvance=44    page=0  chnl=15
char id=234  x=845   y=186   width=57    height=82    xoffset=-7    yoffset=4     xadvance=44    page=0  chnl=15
char id=235  x=120   y=363   width=57    height=77    xoffset=-7    yoffset=9     xadvance=44    page=0  chnl=15
char id=236  x=693   y=186   width=41    height=83    xoffset=-8    yoffset=3     xadvance=24    page=0  chnl=15
char id=237  x=737   y=186   width=41    height=83    xoffset=-8    yoffset=3     xadvance=24    page=0  chnl=15
char id=238  x=905   y=183   width=46    height=82    xoffset=-11   yoffset=4     xadvance=24    page=0  chnl=15
char id=239  x=180   y=363   width=39    height=77    xoffset=-7    yoffset=9     xadvance=24    page=0  chnl=15
char id=240  x=205   y=745   width=65    height=64    xoffset=-7    yoffset=22    xadvance=51    page=0  chnl=15
char id=241  x=507   y=273   width=61    height=78    xoffset=-7    yoffset=8     xadvance=47    page=0  chnl=15
char id=242  x=883   y=96    width=67    height=84    xoffset=-7    yoffset=3     xadvance=53    page=0  chnl=15
char id=243  x=953   y=96    width=67    height=84    xoffset=-7    yoffset=3     xadvance=53    page=0  chnl=15
char id=244  x=244   y=189   width=67    height=83    xoffset=-7    yoffset=4     xadvance=53    page=0  chnl=15
char id=245  x=284   y=275   width=67    height=79    xoffset=-7    yoffset=8     xadvance=53    page=0  chnl=15
char id=246  x=437   y=273   width=67    height=78    xoffset=-7    yoffset=9     xadvance=53    page=0  chnl=15
char id=247  x=953   y=729   width=48    height=64    xoffset=-7    yoffset=18    xadvance=35    page=0  chnl=15
char id=248  x=0     y=753   width=66    height=64    xoffset=-7    yoffset=22    xadvance=52    page=0  chnl=15
char id=249  x=64    y=192   width=58    height=84    xoffset=-7    yoffset=3     xadvance=45    page=0  chnl=15
char id=250  x=125   y=192   width=58    height=84    xoffset=-7    yoffset=3     xadvance=45    page=0  chnl=15
char id=251  x=512   y=187   width=58    height=83    xoffset=-7    yoffset=4     xadvance=45    page=0  chnl=15
char id=252  x=635   y=272   width=58    height=78    xoffset=-7    yoffset=9     xadvance=45    page=0  chnl=15
char id=253  x=314   y=188   width=67    height=83    xoffset=-7    yoffset=3     xadvance=54    page=0  chnl=15
char id=254  x=137   y=747   width=65    height=64    xoffset=-7    yoffset=22    xadvance=52    page=0  chnl=15
char id=255  x=858   y=271   width=67    height=77    xoffset=-7    yoffset=9     xadvance=54    page=0  chnl=15
kernings count=1915
kerning first=34  second=65  amount=-4  
kerning first=34  second=192 amount=-4  
kerning first=34  second=193 amount=-4  
kerning first=34  second=194 amount=-4  
kerning first=34  second=195 amount=-4  
kerning first=34  second=196 amount=-4  
kerning first=34  second=197 amount=-4  
kerning first=39  second=34  amount=-2  
kerning first=39  second=39  amount=-2  
kerning first=39  second=115 amount=-7  
kerning first=39  second=116 amount=-2  
kerning first=39  second=118 amount=-2  
kerning first=65  second=34  amount=-10 
kerning first=65  second=39  amount=-10 
kerning first=65  second=66  amount=-6  
kerning first=65  second=67  amount=-5  
kerning first=65  second=68  amount=-9  
kerning first=65  second=69  amount=-8  
kerning first=65  second=70  amount=-10 
kerning first=65  second=71  amount=-5  
kerning first=65  second=72  amount=-7  
kerning first=65  second=73  amount=-6  
kerning first=65  second=75  amount=-8  
kerning first=65  second=77  amount=-10 
kerning first=65  second=78  amount=-9  
kerning first=65  second=79  amount=-5  
kerning first=65  second=80  amount=-10 
kerning first=65  second=81  amount=-6  
kerning first=65  second=82  amount=-10 
kerning first=65  second=84  amount=-9  
kerning first=65  second=85  amount=-9  
kerning first=65  second=86  amount=-9  
kerning first=65  second=87  amount=-9  
kerning first=65  second=88  amount=-7  
kerning first=65  second=89  amount=-9  
kerning first=65  second=98  amount=-4  
kerning first=65  second=99  amount=-4  
kerning first=65  second=100 amount=-5  
kerning first=65  second=101 amount=-5  
kerning first=65  second=102 amount=-7  
kerning first=65  second=103 amount=-5  
kerning first=65  second=104 amount=-5  
kerning first=65  second=105 amount=-4  
kerning first=65  second=107 amount=-5  
kerning first=65  second=109 amount=-8  
kerning first=65  second=110 amount=-7  
kerning first=65  second=111 amount=-4  
kerning first=65  second=112 amount=-6  
kerning first=65  second=113 amount=-4  
kerning first=65  second=114 amount=-8  
kerning first=65  second=116 amount=-7  
kerning first=65  second=117 amount=-8  
kerning first=65  second=118 amount=-8  
kerning first=65  second=119 amount=-8  
kerning first=65  second=120 amount=-5  
kerning first=65  second=121 amount=-8  
kerning first=255 second=246 amount=-6  
kerning first=255 second=245 amount=-6  
kerning first=65  second=198 amount=-8  
kerning first=65  second=216 amount=-5  
kerning first=65  second=230 amount=-5  
kerning first=65  second=248 amount=-4  
kerning first=255 second=244 amount=-6  
kerning first=65  second=199 amount=-5  
kerning first=65  second=200 amount=-8  
kerning first=65  second=201 amount=-8  
kerning first=65  second=202 amount=-8  
kerning first=65  second=203 amount=-8  
kerning first=65  second=204 amount=-6  
kerning first=65  second=205 amount=-6  
kerning first=65  second=206 amount=-6  
kerning first=65  second=207 amount=-6  
kerning first=65  second=209 amount=-9  
kerning first=65  second=210 amount=-5  
kerning first=65  second=211 amount=-5  
kerning first=65  second=212 amount=-5  
kerning first=65  second=213 amount=-5  
kerning first=65  second=214 amount=-5  
kerning first=65  second=217 amount=-9  
kerning first=65  second=218 amount=-9  
kerning first=65  second=219 amount=-9  
kerning first=65  second=220 amount=-9  
kerning first=255 second=243 amount=-6  
kerning first=65  second=231 amount=-4  
kerning first=65  second=232 amount=-5  
kerning first=65  second=233 amount=-5  
kerning first=65  second=234 amount=-5  
kerning first=65  second=235 amount=-5  
kerning first=65  second=236 amount=-4  
kerning first=65  second=237 amount=-4  
kerning first=65  second=238 amount=-4  
kerning first=65  second=239 amount=-4  
kerning first=65  second=242 amount=-4  
kerning first=65  second=243 amount=-4  
kerning first=65  second=244 amount=-4  
kerning first=65  second=245 amount=-4  
kerning first=65  second=246 amount=-4  
kerning first=65  second=249 amount=-8  
kerning first=65  second=250 amount=-8  
kerning first=65  second=251 amount=-8  
kerning first=65  second=252 amount=-8  
kerning first=65  second=255 amount=-8  
kerning first=66  second=44  amount=-2  
kerning first=66  second=46  amount=-2  
kerning first=66  second=66  amount=-5  
kerning first=66  second=68  amount=-6  
kerning first=66  second=69  amount=-5  
kerning first=66  second=70  amount=-6  
kerning first=66  second=72  amount=-5  
kerning first=66  second=73  amount=-4  
kerning first=66  second=74  amount=-5  
kerning first=66  second=75  amount=-6  
kerning first=66  second=77  amount=-7  
kerning first=66  second=78  amount=-6  
kerning first=66  second=80  amount=-6  
kerning first=66  second=82  amount=-6  
kerning first=66  second=84  amount=-6  
kerning first=66  second=85  amount=-6  
kerning first=66  second=86  amount=-7  
kerning first=66  second=87  amount=-8  
kerning first=66  second=88  amount=-7  
kerning first=66  second=89  amount=-7  
kerning first=66  second=90  amount=-7  
kerning first=66  second=106 amount=-5  
kerning first=66  second=109 amount=-4  
kerning first=66  second=118 amount=-4  
kerning first=66  second=119 amount=-5  
kerning first=66  second=120 amount=-4  
kerning first=66  second=121 amount=-5  
kerning first=66  second=122 amount=-6  
kerning first=255 second=242 amount=-6  
kerning first=66  second=198 amount=-5  
kerning first=66  second=200 amount=-5  
kerning first=66  second=201 amount=-5  
kerning first=66  second=202 amount=-5  
kerning first=66  second=203 amount=-5  
kerning first=66  second=204 amount=-4  
kerning first=66  second=205 amount=-4  
kerning first=66  second=206 amount=-4  
kerning first=66  second=207 amount=-4  
kerning first=66  second=209 amount=-6  
kerning first=66  second=217 amount=-6  
kerning first=66  second=218 amount=-6  
kerning first=66  second=219 amount=-6  
kerning first=66  second=220 amount=-6  
kerning first=255 second=231 amount=-7  
kerning first=66  second=255 amount=-5  
kerning first=68  second=44  amount=-5  
kerning first=68  second=46  amount=-5  
kerning first=68  second=65  amount=-2  
kerning first=68  second=74  amount=-10 
kerning first=68  second=90  amount=-8  
kerning first=68  second=106 amount=-7  
kerning first=68  second=122 amount=-5  
kerning first=68  second=192 amount=-2  
kerning first=68  second=193 amount=-2  
kerning first=68  second=194 amount=-2  
kerning first=68  second=195 amount=-2  
kerning first=68  second=196 amount=-2  
kerning first=68  second=197 amount=-2  
kerning first=70  second=44  amount=-17 
kerning first=70  second=46  amount=-17 
kerning first=70  second=65  amount=-2  
kerning first=70  second=74  amount=-11 
kerning first=70  second=87  amount=-4  
kerning first=70  second=89  amount=-4  
kerning first=70  second=90  amount=-8  
kerning first=70  second=97  amount=-2  
kerning first=70  second=99  amount=-7  
kerning first=70  second=103 amount=-7  
kerning first=70  second=106 amount=-9  
kerning first=70  second=111 amount=-4  
kerning first=70  second=113 amount=-7  
kerning first=70  second=119 amount=-4  
kerning first=70  second=122 amount=-7  
kerning first=70  second=248 amount=-4  
kerning first=70  second=192 amount=-2  
kerning first=70  second=193 amount=-2  
kerning first=70  second=194 amount=-2  
kerning first=70  second=195 amount=-2  
kerning first=70  second=196 amount=-2  
kerning first=70  second=197 amount=-2  
kerning first=255 second=229 amount=-3  
kerning first=70  second=224 amount=-2  
kerning first=70  second=225 amount=-2  
kerning first=70  second=226 amount=-2  
kerning first=70  second=227 amount=-2  
kerning first=70  second=228 amount=-2  
kerning first=70  second=229 amount=-2  
kerning first=70  second=231 amount=-7  
kerning first=70  second=242 amount=-4  
kerning first=70  second=243 amount=-4  
kerning first=70  second=244 amount=-4  
kerning first=70  second=245 amount=-4  
kerning first=70  second=246 amount=-4  
kerning first=73  second=76  amount=4   
kerning first=73  second=105 amount=4   
kerning first=73  second=108 amount=4   
kerning first=73  second=115 amount=4   
kerning first=255 second=228 amount=-3  
kerning first=73  second=236 amount=4   
kerning first=73  second=237 amount=4   
kerning first=73  second=238 amount=4   
kerning first=73  second=239 amount=4   
kerning first=74  second=44  amount=-2  
kerning first=74  second=46  amount=-2  
kerning first=74  second=90  amount=-4  
kerning first=75  second=71  amount=-5  
kerning first=75  second=77  amount=-4  
kerning first=75  second=81  amount=-5  
kerning first=75  second=86  amount=-4  
kerning first=75  second=87  amount=-5  
kerning first=75  second=88  amount=-4  
kerning first=75  second=89  amount=-5  
kerning first=75  second=100 amount=-4  
kerning first=75  second=102 amount=-4  
kerning first=75  second=109 amount=-5  
kerning first=75  second=112 amount=-4  
kerning first=75  second=114 amount=-4  
kerning first=75  second=118 amount=-5  
kerning first=75  second=119 amount=-6  
kerning first=75  second=120 amount=-5  
kerning first=255 second=227 amount=-3  
kerning first=76  second=34  amount=-10 
kerning first=76  second=39  amount=-10 
kerning first=76  second=66  amount=-6  
kerning first=76  second=68  amount=-9  
kerning first=76  second=69  amount=-8  
kerning first=76  second=70  amount=-9  
kerning first=76  second=72  amount=-7  
kerning first=76  second=73  amount=-5  
kerning first=76  second=75  amount=-7  
kerning first=76  second=77  amount=-10 
kerning first=76  second=78  amount=-9  
kerning first=76  second=79  amount=-2  
kerning first=76  second=80  amount=-10 
kerning first=76  second=82  amount=-10 
kerning first=76  second=84  amount=-6  
kerning first=76  second=85  amount=-7  
kerning first=76  second=86  amount=-9  
kerning first=76  second=87  amount=-9  
kerning first=76  second=88  amount=-6  
kerning first=76  second=89  amount=-9  
kerning first=76  second=98  amount=-4  
kerning first=76  second=100 amount=-7  
kerning first=76  second=101 amount=-6  
kerning first=76  second=102 amount=-7  
kerning first=76  second=104 amount=-5  
kerning first=76  second=107 amount=-5  
kerning first=76  second=109 amount=-7  
kerning first=76  second=110 amount=-6  
kerning first=76  second=112 amount=-7  
kerning first=76  second=114 amount=-7  
kerning first=76  second=116 amount=-8  
kerning first=76  second=117 amount=-5  
kerning first=76  second=118 amount=-10 
kerning first=76  second=119 amount=-10 
kerning first=76  second=120 amount=-5  
kerning first=76  second=121 amount=-7  
kerning first=255 second=226 amount=-3  
kerning first=255 second=225 amount=-3  
kerning first=76  second=198 amount=-8  
kerning first=76  second=216 amount=-2  
kerning first=76  second=230 amount=-6  
kerning first=76  second=200 amount=-8  
kerning first=76  second=201 amount=-8  
kerning first=76  second=202 amount=-8  
kerning first=76  second=203 amount=-8  
kerning first=76  second=204 amount=-5  
kerning first=76  second=205 amount=-5  
kerning first=76  second=206 amount=-5  
kerning first=76  second=207 amount=-5  
kerning first=76  second=209 amount=-9  
kerning first=76  second=210 amount=-2  
kerning first=76  second=211 amount=-2  
kerning first=76  second=212 amount=-2  
kerning first=76  second=213 amount=-2  
kerning first=76  second=214 amount=-2  
kerning first=76  second=217 amount=-7  
kerning first=76  second=218 amount=-7  
kerning first=76  second=219 amount=-7  
kerning first=76  second=220 amount=-7  
kerning first=255 second=224 amount=-3  
kerning first=76  second=232 amount=-6  
kerning first=76  second=233 amount=-6  
kerning first=76  second=234 amount=-6  
kerning first=76  second=235 amount=-6  
kerning first=76  second=249 amount=-5  
kerning first=76  second=250 amount=-5  
kerning first=76  second=251 amount=-5  
kerning first=76  second=252 amount=-5  
kerning first=76  second=255 amount=-7  
kerning first=79  second=44  amount=-5  
kerning first=79  second=46  amount=-5  
kerning first=79  second=74  amount=-9  
kerning first=79  second=90  amount=-7  
kerning first=79  second=106 amount=-6  
kerning first=79  second=122 amount=-4  
kerning first=79  second=195 amount=-2  
kerning first=79  second=196 amount=-2  
kerning first=79  second=197 amount=-2  
kerning first=80  second=44  amount=-14 
kerning first=80  second=46  amount=-14 
kerning first=80  second=65  amount=-2  
kerning first=80  second=74  amount=-10 
kerning first=80  second=87  amount=-4  
kerning first=80  second=90  amount=-8  
kerning first=80  second=97  amount=-2  
kerning first=80  second=106 amount=-8  
kerning first=80  second=122 amount=-6  
kerning first=80  second=192 amount=-2  
kerning first=80  second=193 amount=-2  
kerning first=80  second=194 amount=-2  
kerning first=80  second=195 amount=-2  
kerning first=80  second=196 amount=-2  
kerning first=80  second=197 amount=-2  
kerning first=80  second=224 amount=-2  
kerning first=80  second=225 amount=-2  
kerning first=80  second=226 amount=-2  
kerning first=80  second=227 amount=-2  
kerning first=80  second=228 amount=-2  
kerning first=80  second=229 amount=-2  
kerning first=81  second=77  amount=-5  
kerning first=81  second=82  amount=-4  
kerning first=81  second=85  amount=-2  
kerning first=81  second=86  amount=-4  
kerning first=81  second=87  amount=-5  
kerning first=81  second=88  amount=-5  
kerning first=81  second=89  amount=-5  
kerning first=81  second=217 amount=-2  
kerning first=81  second=218 amount=-2  
kerning first=81  second=219 amount=-2  
kerning first=81  second=220 amount=-2  
kerning first=255 second=248 amount=-6  
kerning first=82  second=66  amount=-5  
kerning first=82  second=67  amount=-5  
kerning first=82  second=68  amount=-5  
kerning first=82  second=69  amount=-5  
kerning first=82  second=70  amount=-5  
kerning first=82  second=71  amount=-5  
kerning first=82  second=72  amount=-5  
kerning first=82  second=75  amount=-5  
kerning first=82  second=77  amount=-6  
kerning first=82  second=78  amount=-5  
kerning first=82  second=79  amount=-3  
kerning first=82  second=80  amount=-5  
kerning first=82  second=81  amount=-5  
kerning first=82  second=82  amount=-6  
kerning first=82  second=84  amount=-3  
kerning first=82  second=85  amount=-3  
kerning first=82  second=86  amount=-3  
kerning first=82  second=87  amount=-3  
kerning first=82  second=88  amount=-6  
kerning first=82  second=89  amount=-7  
kerning first=82  second=99  amount=-4  
kerning first=82  second=103 amount=-4  
kerning first=82  second=109 amount=-5  
kerning first=82  second=111 amount=-4  
kerning first=82  second=112 amount=-4  
kerning first=82  second=113 amount=-4  
kerning first=82  second=114 amount=-4  
kerning first=82  second=118 amount=-5  
kerning first=82  second=119 amount=-5  
kerning first=82  second=120 amount=-5  
kerning first=82  second=121 amount=-3  
kerning first=255 second=122 amount=-5  
kerning first=82  second=198 amount=-5  
kerning first=82  second=216 amount=-3  
kerning first=82  second=248 amount=-4  
kerning first=82  second=199 amount=-5  
kerning first=82  second=200 amount=-5  
kerning first=82  second=201 amount=-5  
kerning first=82  second=202 amount=-5  
kerning first=82  second=203 amount=-5  
kerning first=82  second=209 amount=-5  
kerning first=82  second=210 amount=-3  
kerning first=82  second=211 amount=-3  
kerning first=82  second=212 amount=-3  
kerning first=82  second=213 amount=-3  
kerning first=82  second=214 amount=-3  
kerning first=82  second=217 amount=-3  
kerning first=82  second=218 amount=-3  
kerning first=82  second=219 amount=-3  
kerning first=82  second=220 amount=-3  
kerning first=255 second=115 amount=-4  
kerning first=82  second=231 amount=-4  
kerning first=82  second=242 amount=-4  
kerning first=82  second=243 amount=-4  
kerning first=82  second=244 amount=-4  
kerning first=82  second=245 amount=-4  
kerning first=82  second=246 amount=-4  
kerning first=82  second=255 amount=-3  
kerning first=83  second=90  amount=-5  
kerning first=83  second=122 amount=-5  
kerning first=84  second=44  amount=-8  
kerning first=84  second=45  amount=-3  
kerning first=84  second=46  amount=-8  
kerning first=84  second=58  amount=-4  
kerning first=84  second=59  amount=-4  
kerning first=84  second=65  amount=-2  
kerning first=84  second=74  amount=-9  
kerning first=84  second=90  amount=-6  
kerning first=84  second=97  amount=-2  
kerning first=84  second=99  amount=-4  
kerning first=84  second=103 amount=-5  
kerning first=84  second=106 amount=-7  
kerning first=84  second=111 amount=-4  
kerning first=84  second=113 amount=-5  
kerning first=84  second=122 amount=-5  
kerning first=84  second=248 amount=-4  
kerning first=84  second=192 amount=-2  
kerning first=84  second=193 amount=-2  
kerning first=84  second=194 amount=-2  
kerning first=84  second=195 amount=-2  
kerning first=84  second=196 amount=-2  
kerning first=84  second=197 amount=-2  
kerning first=84  second=224 amount=-2  
kerning first=84  second=225 amount=-2  
kerning first=84  second=226 amount=-2  
kerning first=84  second=227 amount=-2  
kerning first=84  second=228 amount=-2  
kerning first=84  second=229 amount=-2  
kerning first=84  second=231 amount=-4  
kerning first=84  second=242 amount=-4  
kerning first=84  second=243 amount=-4  
kerning first=84  second=244 amount=-4  
kerning first=84  second=245 amount=-4  
kerning first=84  second=246 amount=-4  
kerning first=85  second=44  amount=-2  
kerning first=85  second=46  amount=-2  
kerning first=85  second=90  amount=-5  
kerning first=85  second=106 amount=-4  
kerning first=86  second=44  amount=-12 
kerning first=86  second=45  amount=-5  
kerning first=86  second=46  amount=-12 
kerning first=86  second=58  amount=-6  
kerning first=86  second=59  amount=-6  
kerning first=86  second=65  amount=-3  
kerning first=86  second=67  amount=-7  
kerning first=86  second=71  amount=-5  
kerning first=86  second=74  amount=-10 
kerning first=86  second=79  amount=-6  
kerning first=86  second=81  amount=-8  
kerning first=86  second=83  amount=-4  
kerning first=86  second=90  amount=-7  
kerning first=86  second=97  amount=-5  
kerning first=86  second=99  amount=-9  
kerning first=86  second=100 amount=-4  
kerning first=86  second=102 amount=-4  
kerning first=86  second=103 amount=-9  
kerning first=86  second=106 amount=-11 
kerning first=86  second=109 amount=-5  
kerning first=86  second=111 amount=-7  
kerning first=86  second=112 amount=-4  
kerning first=86  second=113 amount=-9  
kerning first=86  second=114 amount=-4  
kerning first=86  second=115 amount=-6  
kerning first=86  second=118 amount=-5  
kerning first=86  second=119 amount=-5  
kerning first=86  second=120 amount=-5  
kerning first=86  second=121 amount=-5  
kerning first=86  second=122 amount=-8  
kerning first=86  second=216 amount=-6  
kerning first=86  second=248 amount=-7  
kerning first=86  second=192 amount=-3  
kerning first=86  second=193 amount=-3  
kerning first=86  second=194 amount=-3  
kerning first=86  second=195 amount=-3  
kerning first=86  second=196 amount=-3  
kerning first=86  second=197 amount=-3  
kerning first=86  second=199 amount=-7  
kerning first=86  second=210 amount=-6  
kerning first=86  second=211 amount=-6  
kerning first=86  second=212 amount=-6  
kerning first=86  second=213 amount=-6  
kerning first=86  second=214 amount=-6  
kerning first=86  second=224 amount=-5  
kerning first=86  second=225 amount=-5  
kerning first=86  second=226 amount=-5  
kerning first=86  second=227 amount=-5  
kerning first=86  second=228 amount=-5  
kerning first=86  second=229 amount=-5  
kerning first=86  second=231 amount=-9  
kerning first=86  second=232 amount=-2  
kerning first=86  second=233 amount=-2  
kerning first=86  second=234 amount=-2  
kerning first=86  second=235 amount=-2  
kerning first=86  second=236 amount=-2  
kerning first=86  second=237 amount=-2  
kerning first=86  second=238 amount=-2  
kerning first=86  second=239 amount=-2  
kerning first=86  second=242 amount=-7  
kerning first=86  second=243 amount=-7  
kerning first=86  second=244 amount=-7  
kerning first=86  second=245 amount=-7  
kerning first=86  second=246 amount=-7  
kerning first=86  second=249 amount=-2  
kerning first=86  second=250 amount=-2  
kerning first=86  second=251 amount=-2  
kerning first=86  second=252 amount=-2  
kerning first=86  second=255 amount=-5  
kerning first=87  second=44  amount=-9  
kerning first=87  second=45  amount=-4  
kerning first=87  second=46  amount=-9  
kerning first=87  second=58  amount=-5  
kerning first=87  second=59  amount=-5  
kerning first=87  second=65  amount=-3  
kerning first=87  second=67  amount=-7  
kerning first=87  second=71  amount=-7  
kerning first=87  second=74  amount=-11 
kerning first=87  second=79  amount=-5  
kerning first=87  second=81  amount=-7  
kerning first=87  second=83  amount=-4  
kerning first=87  second=87  amount=-4  
kerning first=87  second=89  amount=-4  
kerning first=87  second=90  amount=-8  
kerning first=87  second=97  amount=-5  
kerning first=87  second=99  amount=-8  
kerning first=87  second=100 amount=-4  
kerning first=87  second=102 amount=-4  
kerning first=87  second=103 amount=-8  
kerning first=87  second=106 amount=-11 
kerning first=87  second=107 amount=-4  
kerning first=87  second=109 amount=-5  
kerning first=87  second=110 amount=-4  
kerning first=87  second=111 amount=-6  
kerning first=87  second=112 amount=-5  
kerning first=87  second=113 amount=-8  
kerning first=87  second=114 amount=-5  
kerning first=87  second=115 amount=-6  
kerning first=87  second=116 amount=-4  
kerning first=87  second=118 amount=-5  
kerning first=87  second=119 amount=-6  
kerning first=87  second=120 amount=-5  
kerning first=87  second=122 amount=-9  
kerning first=87  second=216 amount=-5  
kerning first=87  second=248 amount=-6  
kerning first=87  second=192 amount=-3  
kerning first=87  second=193 amount=-3  
kerning first=87  second=194 amount=-3  
kerning first=87  second=195 amount=-3  
kerning first=87  second=196 amount=-3  
kerning first=87  second=197 amount=-3  
kerning first=87  second=199 amount=-7  
kerning first=87  second=210 amount=-5  
kerning first=87  second=211 amount=-5  
kerning first=87  second=212 amount=-5  
kerning first=87  second=213 amount=-5  
kerning first=87  second=214 amount=-5  
kerning first=255 second=113 amount=-8  
kerning first=87  second=224 amount=-5  
kerning first=87  second=225 amount=-5  
kerning first=87  second=226 amount=-5  
kerning first=87  second=227 amount=-5  
kerning first=87  second=228 amount=-5  
kerning first=87  second=229 amount=-5  
kerning first=87  second=231 amount=-8  
kerning first=87  second=242 amount=-6  
kerning first=87  second=243 amount=-6  
kerning first=87  second=244 amount=-6  
kerning first=87  second=245 amount=-6  
kerning first=87  second=246 amount=-6  
kerning first=88  second=67  amount=-11 
kerning first=88  second=71  amount=-11 
kerning first=88  second=74  amount=-4  
kerning first=88  second=79  amount=-11 
kerning first=88  second=81  amount=-11 
kerning first=88  second=98  amount=-5  
kerning first=88  second=99  amount=-10 
kerning first=88  second=100 amount=-7  
kerning first=88  second=101 amount=-6  
kerning first=88  second=102 amount=-6  
kerning first=88  second=103 amount=-10 
kerning first=88  second=104 amount=-6  
kerning first=88  second=105 amount=-5  
kerning first=88  second=107 amount=-6  
kerning first=88  second=109 amount=-7  
kerning first=88  second=110 amount=-6  
kerning first=88  second=111 amount=-10 
kerning first=88  second=112 amount=-7  
kerning first=88  second=113 amount=-10 
kerning first=88  second=114 amount=-7  
kerning first=88  second=116 amount=-6  
kerning first=88  second=117 amount=-6  
kerning first=88  second=118 amount=-7  
kerning first=88  second=119 amount=-8  
kerning first=88  second=120 amount=-6  
kerning first=88  second=121 amount=-8  
kerning first=255 second=111 amount=-6  
kerning first=88  second=216 amount=-11 
kerning first=88  second=230 amount=-6  
kerning first=88  second=248 amount=-10 
kerning first=255 second=106 amount=-7  
kerning first=88  second=199 amount=-11 
kerning first=88  second=210 amount=-11 
kerning first=88  second=211 amount=-11 
kerning first=88  second=212 amount=-11 
kerning first=88  second=213 amount=-11 
kerning first=88  second=214 amount=-11 
kerning first=88  second=231 amount=-10 
kerning first=88  second=232 amount=-6  
kerning first=88  second=233 amount=-6  
kerning first=88  second=234 amount=-6  
kerning first=88  second=235 amount=-6  
kerning first=88  second=236 amount=-5  
kerning first=88  second=237 amount=-5  
kerning first=88  second=238 amount=-5  
kerning first=88  second=239 amount=-5  
kerning first=88  second=242 amount=-10 
kerning first=88  second=243 amount=-10 
kerning first=88  second=244 amount=-10 
kerning first=88  second=245 amount=-10 
kerning first=88  second=246 amount=-10 
kerning first=88  second=249 amount=-6  
kerning first=88  second=250 amount=-6  
kerning first=88  second=251 amount=-6  
kerning first=88  second=252 amount=-6  
kerning first=88  second=255 amount=-8  
kerning first=89  second=44  amount=-14 
kerning first=89  second=45  amount=-7  
kerning first=89  second=46  amount=-14 
kerning first=89  second=58  amount=-8  
kerning first=89  second=59  amount=-8  
kerning first=89  second=65  amount=-3  
kerning first=89  second=67  amount=-11 
kerning first=89  second=71  amount=-11 
kerning first=89  second=74  amount=-11 
kerning first=89  second=79  amount=-7  
kerning first=89  second=81  amount=-11 
kerning first=89  second=83  amount=-5  
kerning first=89  second=87  amount=-4  
kerning first=89  second=89  amount=-4  
kerning first=89  second=90  amount=-8  
kerning first=89  second=97  amount=-7  
kerning first=89  second=98  amount=-6  
kerning first=89  second=99  amount=-13 
kerning first=89  second=100 amount=-6  
kerning first=89  second=101 amount=-3  
kerning first=89  second=102 amount=-6  
kerning first=89  second=103 amount=-13 
kerning first=89  second=104 amount=-6  
kerning first=89  second=105 amount=-3  
kerning first=89  second=106 amount=-13 
kerning first=89  second=107 amount=-6  
kerning first=89  second=108 amount=-4  
kerning first=89  second=109 amount=-7  
kerning first=89  second=110 amount=-6  
kerning first=89  second=111 amount=-9  
kerning first=89  second=112 amount=-6  
kerning first=89  second=113 amount=-13 
kerning first=89  second=114 amount=-7  
kerning first=89  second=115 amount=-9  
kerning first=89  second=116 amount=-6  
kerning first=89  second=117 amount=-3  
kerning first=89  second=118 amount=-7  
kerning first=89  second=119 amount=-8  
kerning first=89  second=120 amount=-7  
kerning first=89  second=121 amount=-7  
kerning first=89  second=122 amount=-11 
kerning first=255 second=103 amount=-8  
kerning first=89  second=216 amount=-7  
kerning first=89  second=230 amount=-3  
kerning first=89  second=248 amount=-9  
kerning first=255 second=99  amount=-7  
kerning first=89  second=192 amount=-3  
kerning first=89  second=193 amount=-3  
kerning first=89  second=194 amount=-3  
kerning first=89  second=195 amount=-3  
kerning first=89  second=196 amount=-3  
kerning first=89  second=197 amount=-3  
kerning first=89  second=199 amount=-11 
kerning first=89  second=210 amount=-7  
kerning first=89  second=211 amount=-7  
kerning first=89  second=212 amount=-7  
kerning first=89  second=213 amount=-7  
kerning first=89  second=214 amount=-7  
kerning first=255 second=97  amount=-3  
kerning first=89  second=224 amount=-7  
kerning first=89  second=225 amount=-7  
kerning first=89  second=226 amount=-7  
kerning first=89  second=227 amount=-7  
kerning first=89  second=228 amount=-7  
kerning first=89  second=229 amount=-7  
kerning first=89  second=231 amount=-13 
kerning first=89  second=232 amount=-3  
kerning first=89  second=233 amount=-3  
kerning first=89  second=234 amount=-3  
kerning first=89  second=235 amount=-3  
kerning first=89  second=236 amount=-3  
kerning first=89  second=237 amount=-3  
kerning first=89  second=238 amount=-3  
kerning first=89  second=239 amount=-3  
kerning first=89  second=242 amount=-9  
kerning first=89  second=243 amount=-9  
kerning first=89  second=244 amount=-9  
kerning first=89  second=245 amount=-9  
kerning first=89  second=246 amount=-9  
kerning first=89  second=249 amount=-3  
kerning first=89  second=250 amount=-3  
kerning first=89  second=251 amount=-3  
kerning first=89  second=252 amount=-3  
kerning first=89  second=255 amount=-7  
kerning first=90  second=65  amount=-6  
kerning first=90  second=67  amount=-7  
kerning first=90  second=71  amount=-7  
kerning first=90  second=74  amount=-6  
kerning first=90  second=79  amount=-7  
kerning first=90  second=81  amount=-7  
kerning first=90  second=83  amount=-4  
kerning first=90  second=90  amount=-7  
kerning first=90  second=97  amount=-6  
kerning first=90  second=98  amount=-5  
kerning first=90  second=99  amount=-6  
kerning first=90  second=100 amount=-5  
kerning first=90  second=101 amount=-5  
kerning first=90  second=102 amount=-5  
kerning first=90  second=103 amount=-6  
kerning first=90  second=104 amount=-5  
kerning first=90  second=106 amount=-6  
kerning first=90  second=107 amount=-5  
kerning first=90  second=109 amount=-6  
kerning first=90  second=110 amount=-5  
kerning first=90  second=111 amount=-6  
kerning first=90  second=112 amount=-5  
kerning first=90  second=113 amount=-6  
kerning first=90  second=114 amount=-6  
kerning first=90  second=115 amount=-4  
kerning first=90  second=116 amount=-5  
kerning first=90  second=117 amount=-5  
kerning first=90  second=118 amount=-6  
kerning first=90  second=119 amount=-7  
kerning first=90  second=120 amount=-6  
kerning first=90  second=121 amount=-6  
kerning first=90  second=122 amount=-6  
kerning first=255 second=46  amount=-11 
kerning first=90  second=216 amount=-7  
kerning first=90  second=230 amount=-5  
kerning first=90  second=248 amount=-6  
kerning first=90  second=192 amount=-6  
kerning first=90  second=193 amount=-6  
kerning first=90  second=194 amount=-6  
kerning first=90  second=195 amount=-6  
kerning first=90  second=196 amount=-6  
kerning first=90  second=197 amount=-6  
kerning first=90  second=199 amount=-7  
kerning first=90  second=210 amount=-7  
kerning first=90  second=211 amount=-7  
kerning first=90  second=212 amount=-7  
kerning first=90  second=213 amount=-7  
kerning first=90  second=214 amount=-7  
kerning first=90  second=224 amount=-6  
kerning first=90  second=225 amount=-6  
kerning first=90  second=226 amount=-6  
kerning first=90  second=227 amount=-6  
kerning first=90  second=228 amount=-6  
kerning first=90  second=229 amount=-6  
kerning first=90  second=231 amount=-6  
kerning first=90  second=232 amount=-5  
kerning first=90  second=233 amount=-5  
kerning first=90  second=234 amount=-5  
kerning first=90  second=235 amount=-5  
kerning first=90  second=242 amount=-6  
kerning first=90  second=243 amount=-6  
kerning first=90  second=244 amount=-6  
kerning first=90  second=245 amount=-6  
kerning first=90  second=246 amount=-6  
kerning first=90  second=249 amount=-5  
kerning first=90  second=250 amount=-5  
kerning first=90  second=251 amount=-5  
kerning first=90  second=252 amount=-5  
kerning first=90  second=255 amount=-6  
kerning first=97  second=98  amount=-3  
kerning first=97  second=99  amount=-5  
kerning first=97  second=100 amount=-7  
kerning first=97  second=101 amount=-6  
kerning first=97  second=102 amount=-7  
kerning first=97  second=103 amount=-4  
kerning first=97  second=104 amount=-5  
kerning first=97  second=107 amount=-5  
kerning first=97  second=109 amount=-7  
kerning first=97  second=110 amount=-6  
kerning first=97  second=111 amount=-5  
kerning first=97  second=112 amount=-6  
kerning first=97  second=113 amount=-5  
kerning first=97  second=114 amount=-7  
kerning first=97  second=116 amount=-7  
kerning first=97  second=117 amount=-8  
kerning first=97  second=118 amount=-7  
kerning first=97  second=119 amount=-7  
kerning first=97  second=120 amount=-4  
kerning first=97  second=121 amount=-7  
kerning first=255 second=44  amount=-11 
kerning first=97  second=230 amount=-6  
kerning first=97  second=248 amount=-5  
kerning first=97  second=231 amount=-5  
kerning first=97  second=232 amount=-6  
kerning first=97  second=233 amount=-6  
kerning first=97  second=234 amount=-6  
kerning first=97  second=235 amount=-6  
kerning first=97  second=242 amount=-5  
kerning first=97  second=243 amount=-5  
kerning first=97  second=244 amount=-5  
kerning first=97  second=245 amount=-5  
kerning first=97  second=246 amount=-5  
kerning first=97  second=249 amount=-8  
kerning first=97  second=250 amount=-8  
kerning first=97  second=251 amount=-8  
kerning first=97  second=252 amount=-8  
kerning first=97  second=255 amount=-7  
kerning first=98  second=109 amount=-5  
kerning first=98  second=117 amount=-3  
kerning first=98  second=118 amount=-3  
kerning first=98  second=119 amount=-5  
kerning first=98  second=120 amount=-4  
kerning first=98  second=121 amount=-3  
kerning first=98  second=122 amount=-5  
kerning first=98  second=249 amount=-3  
kerning first=98  second=250 amount=-3  
kerning first=98  second=251 amount=-3  
kerning first=98  second=252 amount=-3  
kerning first=98  second=255 amount=-3  
kerning first=100 second=97  amount=-4  
kerning first=100 second=106 amount=-7  
kerning first=100 second=122 amount=-5  
kerning first=100 second=224 amount=-4  
kerning first=100 second=225 amount=-4  
kerning first=100 second=226 amount=-4  
kerning first=100 second=227 amount=-4  
kerning first=100 second=228 amount=-4  
kerning first=100 second=229 amount=-4  
kerning first=102 second=44  amount=-13 
kerning first=102 second=46  amount=-13 
kerning first=102 second=106 amount=-8  
kerning first=102 second=122 amount=-5  
kerning first=105 second=105 amount=4   
kerning first=105 second=108 amount=5   
kerning first=105 second=115 amount=4   
kerning first=246 second=122 amount=-5  
kerning first=105 second=236 amount=4   
kerning first=105 second=237 amount=4   
kerning first=105 second=238 amount=4   
kerning first=105 second=239 amount=4   
kerning first=106 second=108 amount=4   
kerning first=108 second=100 amount=-6  
kerning first=108 second=101 amount=-6  
kerning first=108 second=102 amount=-6  
kerning first=108 second=104 amount=-4  
kerning first=108 second=107 amount=-5  
kerning first=108 second=109 amount=-7  
kerning first=108 second=110 amount=-6  
kerning first=108 second=112 amount=-7  
kerning first=108 second=114 amount=-7  
kerning first=108 second=116 amount=-8  
kerning first=108 second=117 amount=-4  
kerning first=108 second=118 amount=-11 
kerning first=108 second=119 amount=-7  
kerning first=108 second=120 amount=-4  
kerning first=108 second=121 amount=-7  
kerning first=246 second=106 amount=-6  
kerning first=108 second=230 amount=-6  
kerning first=108 second=232 amount=-6  
kerning first=108 second=233 amount=-6  
kerning first=108 second=234 amount=-6  
kerning first=108 second=235 amount=-6  
kerning first=108 second=249 amount=-4  
kerning first=108 second=250 amount=-4  
kerning first=108 second=251 amount=-4  
kerning first=108 second=252 amount=-4  
kerning first=108 second=255 amount=-7  
kerning first=111 second=44  amount=-3  
kerning first=111 second=46  amount=-3  
kerning first=111 second=106 amount=-6  
kerning first=111 second=122 amount=-5  
kerning first=112 second=44  amount=-8  
kerning first=112 second=46  amount=-9  
kerning first=112 second=97  amount=-4  
kerning first=112 second=106 amount=-7  
kerning first=112 second=122 amount=-5  
kerning first=112 second=224 amount=-4  
kerning first=112 second=225 amount=-4  
kerning first=112 second=226 amount=-4  
kerning first=112 second=227 amount=-4  
kerning first=112 second=228 amount=-4  
kerning first=112 second=229 amount=-4  
kerning first=114 second=45  amount=-2  
kerning first=114 second=99  amount=-2  
kerning first=114 second=100 amount=-2  
kerning first=114 second=101 amount=-2  
kerning first=114 second=103 amount=-2  
kerning first=114 second=105 amount=-2  
kerning first=114 second=107 amount=-2  
kerning first=114 second=109 amount=-2  
kerning first=114 second=110 amount=-2  
kerning first=114 second=111 amount=-2  
kerning first=114 second=112 amount=-2  
kerning first=114 second=113 amount=-2  
kerning first=114 second=114 amount=-2  
kerning first=114 second=116 amount=-2  
kerning first=114 second=117 amount=-2  
kerning first=114 second=118 amount=-2  
kerning first=114 second=119 amount=-5  
kerning first=114 second=121 amount=-2  
kerning first=246 second=46  amount=-3  
kerning first=114 second=230 amount=-2  
kerning first=114 second=248 amount=-2  
kerning first=246 second=44  amount=-3  
kerning first=114 second=231 amount=-2  
kerning first=114 second=232 amount=-2  
kerning first=114 second=233 amount=-2  
kerning first=114 second=234 amount=-2  
kerning first=114 second=235 amount=-2  
kerning first=114 second=236 amount=-2  
kerning first=114 second=237 amount=-2  
kerning first=114 second=238 amount=-2  
kerning first=114 second=239 amount=-2  
kerning first=114 second=242 amount=-2  
kerning first=114 second=243 amount=-2  
kerning first=114 second=244 amount=-2  
kerning first=114 second=245 amount=-2  
kerning first=114 second=246 amount=-2  
kerning first=114 second=249 amount=-2  
kerning first=114 second=250 amount=-2  
kerning first=114 second=251 amount=-2  
kerning first=114 second=252 amount=-2  
kerning first=114 second=255 amount=-2  
kerning first=116 second=106 amount=-6  
kerning first=118 second=44  amount=-9  
kerning first=118 second=46  amount=-9  
kerning first=118 second=97  amount=-3  
kerning first=118 second=99  amount=-5  
kerning first=118 second=103 amount=-5  
kerning first=118 second=106 amount=-7  
kerning first=118 second=111 amount=-4  
kerning first=118 second=113 amount=-5  
kerning first=118 second=122 amount=-5  
kerning first=118 second=248 amount=-4  
kerning first=118 second=224 amount=-3  
kerning first=118 second=225 amount=-3  
kerning first=118 second=226 amount=-3  
kerning first=118 second=227 amount=-3  
kerning first=118 second=228 amount=-3  
kerning first=118 second=229 amount=-3  
kerning first=118 second=231 amount=-5  
kerning first=118 second=242 amount=-4  
kerning first=118 second=243 amount=-4  
kerning first=118 second=244 amount=-4  
kerning first=118 second=245 amount=-4  
kerning first=118 second=246 amount=-4  
kerning first=119 second=44  amount=-7  
kerning first=119 second=46  amount=-7  
kerning first=119 second=97  amount=-3  
kerning first=119 second=99  amount=-5  
kerning first=119 second=103 amount=-5  
kerning first=119 second=106 amount=-7  
kerning first=119 second=111 amount=-4  
kerning first=119 second=113 amount=-5  
kerning first=119 second=122 amount=-5  
kerning first=119 second=248 amount=-4  
kerning first=119 second=224 amount=-3  
kerning first=119 second=225 amount=-3  
kerning first=119 second=226 amount=-3  
kerning first=119 second=227 amount=-3  
kerning first=119 second=228 amount=-3  
kerning first=119 second=229 amount=-3  
kerning first=119 second=231 amount=-5  
kerning first=119 second=242 amount=-4  
kerning first=119 second=243 amount=-4  
kerning first=119 second=244 amount=-4  
kerning first=119 second=245 amount=-4  
kerning first=119 second=246 amount=-4  
kerning first=120 second=99  amount=-8  
kerning first=120 second=103 amount=-8  
kerning first=120 second=111 amount=-8  
kerning first=120 second=113 amount=-8  
kerning first=120 second=248 amount=-8  
kerning first=120 second=231 amount=-8  
kerning first=120 second=242 amount=-8  
kerning first=120 second=243 amount=-8  
kerning first=120 second=244 amount=-8  
kerning first=120 second=245 amount=-8  
kerning first=120 second=246 amount=-8  
kerning first=121 second=44  amount=-11 
kerning first=121 second=46  amount=-11 
kerning first=121 second=97  amount=-3  
kerning first=121 second=99  amount=-7  
kerning first=121 second=103 amount=-8  
kerning first=121 second=106 amount=-7  
kerning first=121 second=111 amount=-6  
kerning first=121 second=113 amount=-8  
kerning first=121 second=115 amount=-4  
kerning first=121 second=122 amount=-5  
kerning first=121 second=248 amount=-6  
kerning first=121 second=224 amount=-3  
kerning first=121 second=225 amount=-3  
kerning first=121 second=226 amount=-3  
kerning first=121 second=227 amount=-3  
kerning first=121 second=228 amount=-3  
kerning first=121 second=229 amount=-3  
kerning first=121 second=231 amount=-7  
kerning first=121 second=242 amount=-6  
kerning first=121 second=243 amount=-6  
kerning first=121 second=244 amount=-6  
kerning first=121 second=245 amount=-6  
kerning first=121 second=246 amount=-6  
kerning first=122 second=99  amount=-5  
kerning first=122 second=103 amount=-5  
kerning first=122 second=111 amount=-2  
kerning first=122 second=113 amount=-5  
kerning first=122 second=122 amount=-4  
kerning first=122 second=248 amount=-2  
kerning first=122 second=231 amount=-5  
kerning first=122 second=242 amount=-2  
kerning first=122 second=243 amount=-2  
kerning first=122 second=244 amount=-2  
kerning first=122 second=245 amount=-2  
kerning first=122 second=246 amount=-2  
kerning first=216 second=44  amount=-5  
kerning first=216 second=46  amount=-5  
kerning first=216 second=74  amount=-9  
kerning first=216 second=90  amount=-7  
kerning first=216 second=106 amount=-6  
kerning first=216 second=122 amount=-4  
kerning first=216 second=195 amount=-2  
kerning first=216 second=196 amount=-2  
kerning first=216 second=197 amount=-2  
kerning first=248 second=44  amount=-3  
kerning first=248 second=46  amount=-3  
kerning first=248 second=106 amount=-6  
kerning first=248 second=122 amount=-5  
kerning first=245 second=122 amount=-5  
kerning first=245 second=106 amount=-6  
kerning first=245 second=46  amount=-3  
kerning first=245 second=44  amount=-3  
kerning first=244 second=122 amount=-5  
kerning first=244 second=106 amount=-6  
kerning first=244 second=46  amount=-3  
kerning first=244 second=44  amount=-3  
kerning first=192 second=34  amount=-10 
kerning first=192 second=39  amount=-10 
kerning first=192 second=66  amount=-6  
kerning first=192 second=67  amount=-5  
kerning first=192 second=68  amount=-9  
kerning first=192 second=69  amount=-8  
kerning first=192 second=70  amount=-10 
kerning first=192 second=71  amount=-5  
kerning first=192 second=72  amount=-7  
kerning first=192 second=73  amount=-6  
kerning first=192 second=75  amount=-8  
kerning first=192 second=77  amount=-10 
kerning first=192 second=78  amount=-9  
kerning first=192 second=79  amount=-5  
kerning first=192 second=80  amount=-10 
kerning first=192 second=81  amount=-6  
kerning first=192 second=82  amount=-10 
kerning first=192 second=84  amount=-9  
kerning first=192 second=85  amount=-9  
kerning first=192 second=86  amount=-9  
kerning first=192 second=87  amount=-9  
kerning first=192 second=88  amount=-7  
kerning first=192 second=89  amount=-9  
kerning first=192 second=98  amount=-4  
kerning first=192 second=99  amount=-4  
kerning first=192 second=100 amount=-5  
kerning first=192 second=101 amount=-5  
kerning first=192 second=102 amount=-7  
kerning first=192 second=103 amount=-5  
kerning first=192 second=104 amount=-5  
kerning first=192 second=105 amount=-4  
kerning first=192 second=107 amount=-5  
kerning first=192 second=109 amount=-8  
kerning first=192 second=110 amount=-7  
kerning first=192 second=111 amount=-4  
kerning first=192 second=112 amount=-6  
kerning first=192 second=113 amount=-4  
kerning first=192 second=114 amount=-8  
kerning first=192 second=116 amount=-7  
kerning first=192 second=117 amount=-8  
kerning first=192 second=118 amount=-8  
kerning first=192 second=119 amount=-8  
kerning first=192 second=120 amount=-5  
kerning first=192 second=121 amount=-8  
kerning first=243 second=122 amount=-5  
kerning first=243 second=106 amount=-6  
kerning first=192 second=198 amount=-8  
kerning first=192 second=216 amount=-5  
kerning first=192 second=230 amount=-5  
kerning first=192 second=248 amount=-4  
kerning first=243 second=46  amount=-3  
kerning first=192 second=199 amount=-5  
kerning first=192 second=200 amount=-8  
kerning first=192 second=201 amount=-8  
kerning first=192 second=202 amount=-8  
kerning first=192 second=203 amount=-8  
kerning first=192 second=204 amount=-6  
kerning first=192 second=205 amount=-6  
kerning first=192 second=206 amount=-6  
kerning first=192 second=207 amount=-6  
kerning first=192 second=209 amount=-9  
kerning first=192 second=210 amount=-5  
kerning first=192 second=211 amount=-5  
kerning first=192 second=212 amount=-5  
kerning first=192 second=213 amount=-5  
kerning first=192 second=214 amount=-5  
kerning first=192 second=217 amount=-9  
kerning first=192 second=218 amount=-9  
kerning first=192 second=219 amount=-9  
kerning first=192 second=220 amount=-9  
kerning first=243 second=44  amount=-3  
kerning first=192 second=231 amount=-4  
kerning first=192 second=232 amount=-5  
kerning first=192 second=233 amount=-5  
kerning first=192 second=234 amount=-5  
kerning first=192 second=235 amount=-5  
kerning first=192 second=236 amount=-4  
kerning first=192 second=237 amount=-4  
kerning first=192 second=238 amount=-4  
kerning first=192 second=239 amount=-4  
kerning first=192 second=242 amount=-4  
kerning first=192 second=243 amount=-4  
kerning first=192 second=244 amount=-4  
kerning first=192 second=245 amount=-4  
kerning first=192 second=246 amount=-4  
kerning first=192 second=249 amount=-8  
kerning first=192 second=250 amount=-8  
kerning first=192 second=251 amount=-8  
kerning first=192 second=252 amount=-8  
kerning first=192 second=255 amount=-8  
kerning first=193 second=34  amount=-10 
kerning first=193 second=39  amount=-10 
kerning first=193 second=66  amount=-6  
kerning first=193 second=67  amount=-5  
kerning first=193 second=68  amount=-9  
kerning first=193 second=69  amount=-8  
kerning first=193 second=70  amount=-10 
kerning first=193 second=71  amount=-5  
kerning first=193 second=72  amount=-7  
kerning first=193 second=73  amount=-6  
kerning first=193 second=75  amount=-8  
kerning first=193 second=77  amount=-10 
kerning first=193 second=78  amount=-9  
kerning first=193 second=79  amount=-5  
kerning first=193 second=80  amount=-10 
kerning first=193 second=81  amount=-6  
kerning first=193 second=82  amount=-10 
kerning first=193 second=84  amount=-9  
kerning first=193 second=85  amount=-9  
kerning first=193 second=86  amount=-9  
kerning first=193 second=87  amount=-9  
kerning first=193 second=88  amount=-7  
kerning first=193 second=89  amount=-9  
kerning first=193 second=98  amount=-4  
kerning first=193 second=99  amount=-4  
kerning first=193 second=100 amount=-5  
kerning first=193 second=101 amount=-5  
kerning first=193 second=102 amount=-7  
kerning first=193 second=103 amount=-5  
kerning first=193 second=104 amount=-5  
kerning first=193 second=105 amount=-4  
kerning first=193 second=107 amount=-5  
kerning first=193 second=109 amount=-8  
kerning first=193 second=110 amount=-7  
kerning first=193 second=111 amount=-4  
kerning first=193 second=112 amount=-6  
kerning first=193 second=113 amount=-4  
kerning first=193 second=114 amount=-8  
kerning first=193 second=116 amount=-7  
kerning first=193 second=117 amount=-8  
kerning first=193 second=118 amount=-8  
kerning first=193 second=119 amount=-8  
kerning first=193 second=120 amount=-5  
kerning first=193 second=121 amount=-8  
kerning first=242 second=122 amount=-5  
kerning first=242 second=106 amount=-6  
kerning first=193 second=198 amount=-8  
kerning first=193 second=216 amount=-5  
kerning first=193 second=230 amount=-5  
kerning first=193 second=248 amount=-4  
kerning first=242 second=46  amount=-3  
kerning first=193 second=199 amount=-5  
kerning first=193 second=200 amount=-8  
kerning first=193 second=201 amount=-8  
kerning first=193 second=202 amount=-8  
kerning first=193 second=203 amount=-8  
kerning first=193 second=204 amount=-6  
kerning first=193 second=205 amount=-6  
kerning first=193 second=206 amount=-6  
kerning first=193 second=207 amount=-6  
kerning first=193 second=209 amount=-9  
kerning first=193 second=210 amount=-5  
kerning first=193 second=211 amount=-5  
kerning first=193 second=212 amount=-5  
kerning first=193 second=213 amount=-5  
kerning first=193 second=214 amount=-5  
kerning first=193 second=217 amount=-9  
kerning first=193 second=218 amount=-9  
kerning first=193 second=219 amount=-9  
kerning first=193 second=220 amount=-9  
kerning first=242 second=44  amount=-3  
kerning first=193 second=231 amount=-4  
kerning first=193 second=232 amount=-5  
kerning first=193 second=233 amount=-5  
kerning first=193 second=234 amount=-5  
kerning first=193 second=235 amount=-5  
kerning first=193 second=236 amount=-4  
kerning first=193 second=237 amount=-4  
kerning first=193 second=238 amount=-4  
kerning first=193 second=239 amount=-4  
kerning first=193 second=242 amount=-4  
kerning first=193 second=243 amount=-4  
kerning first=193 second=244 amount=-4  
kerning first=193 second=245 amount=-4  
kerning first=193 second=246 amount=-4  
kerning first=193 second=249 amount=-8  
kerning first=193 second=250 amount=-8  
kerning first=193 second=251 amount=-8  
kerning first=193 second=252 amount=-8  
kerning first=193 second=255 amount=-8  
kerning first=194 second=34  amount=-10 
kerning first=194 second=39  amount=-10 
kerning first=194 second=66  amount=-6  
kerning first=194 second=67  amount=-5  
kerning first=194 second=68  amount=-9  
kerning first=194 second=69  amount=-8  
kerning first=194 second=70  amount=-10 
kerning first=194 second=71  amount=-5  
kerning first=194 second=72  amount=-7  
kerning first=194 second=73  amount=-6  
kerning first=194 second=75  amount=-8  
kerning first=194 second=77  amount=-10 
kerning first=194 second=78  amount=-9  
kerning first=194 second=79  amount=-5  
kerning first=194 second=80  amount=-10 
kerning first=194 second=81  amount=-6  
kerning first=194 second=82  amount=-10 
kerning first=194 second=84  amount=-9  
kerning first=194 second=85  amount=-9  
kerning first=194 second=86  amount=-9  
kerning first=194 second=87  amount=-9  
kerning first=194 second=88  amount=-7  
kerning first=194 second=89  amount=-9  
kerning first=194 second=98  amount=-4  
kerning first=194 second=99  amount=-4  
kerning first=194 second=100 amount=-5  
kerning first=194 second=101 amount=-5  
kerning first=194 second=102 amount=-7  
kerning first=194 second=103 amount=-5  
kerning first=194 second=104 amount=-5  
kerning first=194 second=105 amount=-4  
kerning first=194 second=107 amount=-5  
kerning first=194 second=109 amount=-8  
kerning first=194 second=110 amount=-7  
kerning first=194 second=111 amount=-4  
kerning first=194 second=112 amount=-6  
kerning first=194 second=113 amount=-4  
kerning first=194 second=114 amount=-8  
kerning first=194 second=116 amount=-7  
kerning first=194 second=117 amount=-8  
kerning first=194 second=118 amount=-8  
kerning first=194 second=119 amount=-8  
kerning first=194 second=120 amount=-5  
kerning first=194 second=121 amount=-8  
kerning first=239 second=239 amount=4   
kerning first=239 second=238 amount=4   
kerning first=194 second=198 amount=-8  
kerning first=194 second=216 amount=-5  
kerning first=194 second=230 amount=-5  
kerning first=194 second=248 amount=-4  
kerning first=239 second=237 amount=4   
kerning first=194 second=199 amount=-5  
kerning first=194 second=200 amount=-8  
kerning first=194 second=201 amount=-8  
kerning first=194 second=202 amount=-8  
kerning first=194 second=203 amount=-8  
kerning first=194 second=204 amount=-6  
kerning first=194 second=205 amount=-6  
kerning first=194 second=206 amount=-6  
kerning first=194 second=207 amount=-6  
kerning first=194 second=209 amount=-9  
kerning first=194 second=210 amount=-5  
kerning first=194 second=211 amount=-5  
kerning first=194 second=212 amount=-5  
kerning first=194 second=213 amount=-5  
kerning first=194 second=214 amount=-5  
kerning first=194 second=217 amount=-9  
kerning first=194 second=218 amount=-9  
kerning first=194 second=219 amount=-9  
kerning first=194 second=220 amount=-9  
kerning first=239 second=236 amount=4   
kerning first=194 second=231 amount=-4  
kerning first=194 second=232 amount=-5  
kerning first=194 second=233 amount=-5  
kerning first=194 second=234 amount=-5  
kerning first=194 second=235 amount=-5  
kerning first=194 second=236 amount=-4  
kerning first=194 second=237 amount=-4  
kerning first=194 second=238 amount=-4  
kerning first=194 second=239 amount=-4  
kerning first=194 second=242 amount=-4  
kerning first=194 second=243 amount=-4  
kerning first=194 second=244 amount=-4  
kerning first=194 second=245 amount=-4  
kerning first=194 second=246 amount=-4  
kerning first=194 second=249 amount=-8  
kerning first=194 second=250 amount=-8  
kerning first=194 second=251 amount=-8  
kerning first=194 second=252 amount=-8  
kerning first=194 second=255 amount=-8  
kerning first=195 second=34  amount=-10 
kerning first=195 second=39  amount=-10 
kerning first=195 second=66  amount=-6  
kerning first=195 second=67  amount=-5  
kerning first=195 second=68  amount=-9  
kerning first=195 second=69  amount=-8  
kerning first=195 second=70  amount=-10 
kerning first=195 second=71  amount=-5  
kerning first=195 second=72  amount=-7  
kerning first=195 second=73  amount=-6  
kerning first=195 second=75  amount=-8  
kerning first=195 second=77  amount=-10 
kerning first=195 second=78  amount=-9  
kerning first=195 second=79  amount=-5  
kerning first=195 second=80  amount=-10 
kerning first=195 second=81  amount=-6  
kerning first=195 second=82  amount=-10 
kerning first=195 second=84  amount=-9  
kerning first=195 second=85  amount=-9  
kerning first=195 second=86  amount=-9  
kerning first=195 second=87  amount=-9  
kerning first=195 second=88  amount=-7  
kerning first=195 second=89  amount=-9  
kerning first=195 second=98  amount=-4  
kerning first=195 second=99  amount=-4  
kerning first=195 second=100 amount=-5  
kerning first=195 second=101 amount=-5  
kerning first=195 second=102 amount=-7  
kerning first=195 second=103 amount=-5  
kerning first=195 second=104 amount=-5  
kerning first=195 second=105 amount=-4  
kerning first=195 second=107 amount=-5  
kerning first=195 second=109 amount=-8  
kerning first=195 second=110 amount=-7  
kerning first=195 second=111 amount=-4  
kerning first=195 second=112 amount=-6  
kerning first=195 second=113 amount=-4  
kerning first=195 second=114 amount=-8  
kerning first=195 second=116 amount=-7  
kerning first=195 second=117 amount=-8  
kerning first=195 second=118 amount=-8  
kerning first=195 second=119 amount=-8  
kerning first=195 second=120 amount=-5  
kerning first=195 second=121 amount=-8  
kerning first=239 second=115 amount=4   
kerning first=239 second=108 amount=5   
kerning first=195 second=198 amount=-8  
kerning first=195 second=216 amount=-5  
kerning first=195 second=230 amount=-5  
kerning first=195 second=248 amount=-4  
kerning first=239 second=105 amount=4   
kerning first=195 second=199 amount=-5  
kerning first=195 second=200 amount=-8  
kerning first=195 second=201 amount=-8  
kerning first=195 second=202 amount=-8  
kerning first=195 second=203 amount=-8  
kerning first=195 second=204 amount=-6  
kerning first=195 second=205 amount=-6  
kerning first=195 second=206 amount=-6  
kerning first=195 second=207 amount=-6  
kerning first=195 second=209 amount=-9  
kerning first=195 second=210 amount=-5  
kerning first=195 second=211 amount=-5  
kerning first=195 second=212 amount=-5  
kerning first=195 second=213 amount=-5  
kerning first=195 second=214 amount=-5  
kerning first=195 second=217 amount=-9  
kerning first=195 second=218 amount=-9  
kerning first=195 second=219 amount=-9  
kerning first=195 second=220 amount=-9  
kerning first=238 second=239 amount=4   
kerning first=195 second=231 amount=-4  
kerning first=195 second=232 amount=-5  
kerning first=195 second=233 amount=-5  
kerning first=195 second=234 amount=-5  
kerning first=195 second=235 amount=-5  
kerning first=195 second=236 amount=-4  
kerning first=195 second=237 amount=-4  
kerning first=195 second=238 amount=-4  
kerning first=195 second=239 amount=-4  
kerning first=195 second=242 amount=-4  
kerning first=195 second=243 amount=-4  
kerning first=195 second=244 amount=-4  
kerning first=195 second=245 amount=-4  
kerning first=195 second=246 amount=-4  
kerning first=195 second=249 amount=-8  
kerning first=195 second=250 amount=-8  
kerning first=195 second=251 amount=-8  
kerning first=195 second=252 amount=-8  
kerning first=195 second=255 amount=-8  
kerning first=196 second=34  amount=-10 
kerning first=196 second=39  amount=-10 
kerning first=196 second=66  amount=-6  
kerning first=196 second=67  amount=-5  
kerning first=196 second=68  amount=-9  
kerning first=196 second=69  amount=-8  
kerning first=196 second=70  amount=-10 
kerning first=196 second=71  amount=-5  
kerning first=196 second=72  amount=-7  
kerning first=196 second=73  amount=-6  
kerning first=196 second=75  amount=-8  
kerning first=196 second=77  amount=-10 
kerning first=196 second=78  amount=-9  
kerning first=196 second=79  amount=-5  
kerning first=196 second=80  amount=-10 
kerning first=196 second=81  amount=-6  
kerning first=196 second=82  amount=-10 
kerning first=196 second=84  amount=-9  
kerning first=196 second=85  amount=-9  
kerning first=196 second=86  amount=-9  
kerning first=196 second=87  amount=-9  
kerning first=196 second=88  amount=-7  
kerning first=196 second=89  amount=-9  
kerning first=196 second=98  amount=-4  
kerning first=196 second=99  amount=-4  
kerning first=196 second=100 amount=-5  
kerning first=196 second=101 amount=-5  
kerning first=196 second=102 amount=-7  
kerning first=196 second=103 amount=-5  
kerning first=196 second=104 amount=-5  
kerning first=196 second=105 amount=-4  
kerning first=196 second=107 amount=-5  
kerning first=196 second=109 amount=-8  
kerning first=196 second=110 amount=-7  
kerning first=196 second=111 amount=-4  
kerning first=196 second=112 amount=-6  
kerning first=196 second=113 amount=-4  
kerning first=196 second=114 amount=-8  
kerning first=196 second=116 amount=-7  
kerning first=196 second=117 amount=-8  
kerning first=196 second=118 amount=-8  
kerning first=196 second=119 amount=-8  
kerning first=196 second=120 amount=-5  
kerning first=196 second=121 amount=-8  
kerning first=238 second=238 amount=4   
kerning first=238 second=237 amount=4   
kerning first=196 second=198 amount=-8  
kerning first=196 second=216 amount=-5  
kerning first=196 second=230 amount=-5  
kerning first=196 second=248 amount=-4  
kerning first=238 second=236 amount=4   
kerning first=196 second=199 amount=-5  
kerning first=196 second=200 amount=-8  
kerning first=196 second=201 amount=-8  
kerning first=196 second=202 amount=-8  
kerning first=196 second=203 amount=-8  
kerning first=196 second=204 amount=-6  
kerning first=196 second=205 amount=-6  
kerning first=196 second=206 amount=-6  
kerning first=196 second=207 amount=-6  
kerning first=196 second=209 amount=-9  
kerning first=196 second=210 amount=-5  
kerning first=196 second=211 amount=-5  
kerning first=196 second=212 amount=-5  
kerning first=196 second=213 amount=-5  
kerning first=196 second=214 amount=-5  
kerning first=196 second=217 amount=-9  
kerning first=196 second=218 amount=-9  
kerning first=196 second=219 amount=-9  
kerning first=196 second=220 amount=-9  
kerning first=238 second=115 amount=4   
kerning first=196 second=231 amount=-4  
kerning first=196 second=232 amount=-5  
kerning first=196 second=233 amount=-5  
kerning first=196 second=234 amount=-5  
kerning first=196 second=235 amount=-5  
kerning first=196 second=236 amount=-4  
kerning first=196 second=237 amount=-4  
kerning first=196 second=238 amount=-4  
kerning first=196 second=239 amount=-4  
kerning first=196 second=242 amount=-4  
kerning first=196 second=243 amount=-4  
kerning first=196 second=244 amount=-4  
kerning first=196 second=245 amount=-4  
kerning first=196 second=246 amount=-4  
kerning first=196 second=249 amount=-8  
kerning first=196 second=250 amount=-8  
kerning first=196 second=251 amount=-8  
kerning first=196 second=252 amount=-8  
kerning first=196 second=255 amount=-8  
kerning first=197 second=34  amount=-10 
kerning first=197 second=39  amount=-10 
kerning first=197 second=66  amount=-6  
kerning first=197 second=67  amount=-5  
kerning first=197 second=68  amount=-9  
kerning first=197 second=69  amount=-8  
kerning first=197 second=70  amount=-10 
kerning first=197 second=71  amount=-5  
kerning first=197 second=72  amount=-7  
kerning first=197 second=73  amount=-6  
kerning first=197 second=75  amount=-8  
kerning first=197 second=77  amount=-10 
kerning first=197 second=78  amount=-9  
kerning first=197 second=79  amount=-5  
kerning first=197 second=80  amount=-10 
kerning first=197 second=81  amount=-6  
kerning first=197 second=82  amount=-10 
kerning first=197 second=84  amount=-9  
kerning first=197 second=85  amount=-9  
kerning first=197 second=86  amount=-9  
kerning first=197 second=87  amount=-9  
kerning first=197 second=88  amount=-7  
kerning first=197 second=89  amount=-9  
kerning first=197 second=98  amount=-4  
kerning first=197 second=99  amount=-4  
kerning first=197 second=100 amount=-5  
kerning first=197 second=101 amount=-5  
kerning first=197 second=102 amount=-7  
kerning first=197 second=103 amount=-5  
kerning first=197 second=104 amount=-5  
kerning first=197 second=105 amount=-4  
kerning first=197 second=107 amount=-5  
kerning first=197 second=109 amount=-8  
kerning first=197 second=110 amount=-7  
kerning first=197 second=111 amount=-4  
kerning first=197 second=112 amount=-6  
kerning first=197 second=113 amount=-4  
kerning first=197 second=114 amount=-8  
kerning first=197 second=116 amount=-7  
kerning first=197 second=117 amount=-8  
kerning first=197 second=118 amount=-8  
kerning first=197 second=119 amount=-8  
kerning first=197 second=120 amount=-5  
kerning first=197 second=121 amount=-8  
kerning first=238 second=108 amount=5   
kerning first=238 second=105 amount=4   
kerning first=197 second=198 amount=-8  
kerning first=197 second=216 amount=-5  
kerning first=197 second=230 amount=-5  
kerning first=197 second=248 amount=-4  
kerning first=237 second=239 amount=4   
kerning first=197 second=199 amount=-5  
kerning first=197 second=200 amount=-8  
kerning first=197 second=201 amount=-8  
kerning first=197 second=202 amount=-8  
kerning first=197 second=203 amount=-8  
kerning first=197 second=204 amount=-6  
kerning first=197 second=205 amount=-6  
kerning first=197 second=206 amount=-6  
kerning first=197 second=207 amount=-6  
kerning first=197 second=209 amount=-9  
kerning first=197 second=210 amount=-5  
kerning first=197 second=211 amount=-5  
kerning first=197 second=212 amount=-5  
kerning first=197 second=213 amount=-5  
kerning first=197 second=214 amount=-5  
kerning first=197 second=217 amount=-9  
kerning first=197 second=218 amount=-9  
kerning first=197 second=219 amount=-9  
kerning first=197 second=220 amount=-9  
kerning first=237 second=238 amount=4   
kerning first=197 second=231 amount=-4  
kerning first=197 second=232 amount=-5  
kerning first=197 second=233 amount=-5  
kerning first=197 second=234 amount=-5  
kerning first=197 second=235 amount=-5  
kerning first=197 second=236 amount=-4  
kerning first=197 second=237 amount=-4  
kerning first=197 second=238 amount=-4  
kerning first=197 second=239 amount=-4  
kerning first=197 second=242 amount=-4  
kerning first=197 second=243 amount=-4  
kerning first=197 second=244 amount=-4  
kerning first=197 second=245 amount=-4  
kerning first=197 second=246 amount=-4  
kerning first=197 second=249 amount=-8  
kerning first=197 second=250 amount=-8  
kerning first=197 second=251 amount=-8  
kerning first=197 second=252 amount=-8  
kerning first=197 second=255 amount=-8  
kerning first=204 second=76  amount=4   
kerning first=204 second=105 amount=4   
kerning first=204 second=108 amount=4   
kerning first=204 second=115 amount=4   
kerning first=237 second=237 amount=4   
kerning first=204 second=236 amount=4   
kerning first=204 second=237 amount=4   
kerning first=204 second=238 amount=4   
kerning first=204 second=239 amount=4   
kerning first=205 second=76  amount=4   
kerning first=205 second=105 amount=4   
kerning first=205 second=108 amount=4   
kerning first=205 second=115 amount=4   
kerning first=237 second=236 amount=4   
kerning first=205 second=236 amount=4   
kerning first=205 second=237 amount=4   
kerning first=205 second=238 amount=4   
kerning first=205 second=239 amount=4   
kerning first=206 second=76  amount=4   
kerning first=206 second=105 amount=4   
kerning first=206 second=108 amount=4   
kerning first=206 second=115 amount=4   
kerning first=237 second=115 amount=4   
kerning first=206 second=236 amount=4   
kerning first=206 second=237 amount=4   
kerning first=206 second=238 amount=4   
kerning first=206 second=239 amount=4   
kerning first=207 second=76  amount=4   
kerning first=207 second=105 amount=4   
kerning first=207 second=108 amount=4   
kerning first=207 second=115 amount=4   
kerning first=237 second=108 amount=5   
kerning first=207 second=236 amount=4   
kerning first=207 second=237 amount=4   
kerning first=207 second=238 amount=4   
kerning first=207 second=239 amount=4   
kerning first=210 second=44  amount=-5  
kerning first=210 second=46  amount=-5  
kerning first=210 second=74  amount=-9  
kerning first=210 second=90  amount=-7  
kerning first=210 second=106 amount=-6  
kerning first=210 second=122 amount=-4  
kerning first=210 second=195 amount=-2  
kerning first=210 second=196 amount=-2  
kerning first=210 second=197 amount=-2  
kerning first=211 second=44  amount=-5  
kerning first=211 second=46  amount=-5  
kerning first=211 second=65  amount=-2  
kerning first=211 second=74  amount=-9  
kerning first=211 second=90  amount=-7  
kerning first=211 second=106 amount=-6  
kerning first=211 second=122 amount=-4  
kerning first=211 second=192 amount=-2  
kerning first=211 second=193 amount=-2  
kerning first=211 second=194 amount=-2  
kerning first=211 second=195 amount=-2  
kerning first=211 second=196 amount=-2  
kerning first=211 second=197 amount=-2  
kerning first=212 second=44  amount=-5  
kerning first=212 second=46  amount=-5  
kerning first=212 second=74  amount=-9  
kerning first=212 second=90  amount=-7  
kerning first=212 second=106 amount=-6  
kerning first=212 second=122 amount=-4  
kerning first=212 second=195 amount=-2  
kerning first=212 second=196 amount=-2  
kerning first=212 second=197 amount=-2  
kerning first=213 second=44  amount=-5  
kerning first=213 second=46  amount=-5  
kerning first=213 second=65  amount=-2  
kerning first=213 second=74  amount=-9  
kerning first=213 second=90  amount=-7  
kerning first=213 second=106 amount=-6  
kerning first=213 second=122 amount=-4  
kerning first=213 second=192 amount=-2  
kerning first=213 second=193 amount=-2  
kerning first=213 second=194 amount=-2  
kerning first=213 second=195 amount=-2  
kerning first=213 second=196 amount=-2  
kerning first=213 second=197 amount=-2  
kerning first=214 second=44  amount=-5  
kerning first=214 second=46  amount=-5  
kerning first=214 second=74  amount=-9  
kerning first=214 second=90  amount=-7  
kerning first=214 second=106 amount=-6  
kerning first=214 second=122 amount=-4  
kerning first=214 second=192 amount=-2  
kerning first=214 second=193 amount=-2  
kerning first=214 second=194 amount=-2  
kerning first=214 second=195 amount=-2  
kerning first=214 second=196 amount=-2  
kerning first=214 second=197 amount=-2  
kerning first=217 second=44  amount=-2  
kerning first=217 second=46  amount=-2  
kerning first=217 second=90  amount=-5  
kerning first=217 second=106 amount=-4  
kerning first=218 second=44  amount=-2  
kerning first=218 second=46  amount=-2  
kerning first=218 second=90  amount=-5  
kerning first=218 second=106 amount=-4  
kerning first=219 second=44  amount=-2  
kerning first=219 second=46  amount=-2  
kerning first=219 second=90  amount=-5  
kerning first=219 second=106 amount=-4  
kerning first=220 second=44  amount=-2  
kerning first=220 second=46  amount=-2  
kerning first=220 second=90  amount=-5  
kerning first=220 second=106 amount=-4  
kerning first=237 second=105 amount=4   
kerning first=236 second=239 amount=4   
kerning first=236 second=238 amount=4   
kerning first=236 second=237 amount=4   
kerning first=236 second=236 amount=4   
kerning first=236 second=115 amount=4   
kerning first=236 second=108 amount=5   
kerning first=236 second=105 amount=4   
kerning first=229 second=255 amount=-7  
kerning first=229 second=252 amount=-8  
kerning first=229 second=251 amount=-8  
kerning first=229 second=250 amount=-8  
kerning first=229 second=249 amount=-8  
kerning first=229 second=246 amount=-5  
kerning first=229 second=245 amount=-5  
kerning first=229 second=244 amount=-5  
kerning first=229 second=243 amount=-5  
kerning first=229 second=242 amount=-5  
kerning first=229 second=235 amount=-6  
kerning first=229 second=234 amount=-6  
kerning first=229 second=233 amount=-6  
kerning first=229 second=232 amount=-6  
kerning first=229 second=231 amount=-5  
kerning first=229 second=248 amount=-5  
kerning first=229 second=230 amount=-6  
kerning first=229 second=121 amount=-7  
kerning first=229 second=120 amount=-4  
kerning first=229 second=119 amount=-7  
kerning first=229 second=118 amount=-7  
kerning first=229 second=117 amount=-8  
kerning first=229 second=116 amount=-7  
kerning first=229 second=114 amount=-7  
kerning first=229 second=113 amount=-5  
kerning first=229 second=112 amount=-6  
kerning first=229 second=111 amount=-5  
kerning first=229 second=110 amount=-6  
kerning first=229 second=109 amount=-7  
kerning first=229 second=107 amount=-5  
kerning first=229 second=104 amount=-5  
kerning first=229 second=103 amount=-4  
kerning first=229 second=102 amount=-7  
kerning first=229 second=101 amount=-6  
kerning first=229 second=100 amount=-7  
kerning first=229 second=99  amount=-5  
kerning first=229 second=98  amount=-3  
kerning first=228 second=255 amount=-7  
kerning first=228 second=252 amount=-8  
kerning first=228 second=251 amount=-8  
kerning first=228 second=250 amount=-8  
kerning first=228 second=249 amount=-8  
kerning first=228 second=246 amount=-5  
kerning first=228 second=245 amount=-5  
kerning first=228 second=244 amount=-5  
kerning first=228 second=243 amount=-5  
kerning first=228 second=242 amount=-5  
kerning first=228 second=235 amount=-6  
kerning first=228 second=234 amount=-6  
kerning first=228 second=233 amount=-6  
kerning first=228 second=232 amount=-6  
kerning first=228 second=231 amount=-5  
kerning first=228 second=248 amount=-5  
kerning first=228 second=230 amount=-6  
kerning first=228 second=121 amount=-7  
kerning first=228 second=120 amount=-4  
kerning first=228 second=119 amount=-7  
kerning first=228 second=118 amount=-7  
kerning first=228 second=117 amount=-8  
kerning first=228 second=116 amount=-7  
kerning first=228 second=114 amount=-7  
kerning first=228 second=113 amount=-5  
kerning first=228 second=112 amount=-6  
kerning first=228 second=111 amount=-5  
kerning first=228 second=110 amount=-6  
kerning first=228 second=109 amount=-7  
kerning first=228 second=107 amount=-5  
kerning first=228 second=104 amount=-5  
kerning first=228 second=103 amount=-4  
kerning first=228 second=102 amount=-7  
kerning first=228 second=101 amount=-6  
kerning first=228 second=100 amount=-7  
kerning first=228 second=99  amount=-5  
kerning first=228 second=98  amount=-3  
kerning first=227 second=255 amount=-7  
kerning first=227 second=252 amount=-8  
kerning first=224 second=98  amount=-3  
kerning first=224 second=99  amount=-5  
kerning first=224 second=100 amount=-7  
kerning first=224 second=101 amount=-6  
kerning first=224 second=102 amount=-7  
kerning first=224 second=103 amount=-4  
kerning first=224 second=104 amount=-5  
kerning first=224 second=107 amount=-5  
kerning first=224 second=109 amount=-7  
kerning first=224 second=110 amount=-6  
kerning first=224 second=111 amount=-5  
kerning first=224 second=112 amount=-6  
kerning first=224 second=113 amount=-5  
kerning first=224 second=114 amount=-7  
kerning first=224 second=116 amount=-7  
kerning first=224 second=117 amount=-8  
kerning first=224 second=118 amount=-7  
kerning first=224 second=119 amount=-7  
kerning first=224 second=120 amount=-4  
kerning first=224 second=121 amount=-7  
kerning first=227 second=251 amount=-8  
kerning first=224 second=230 amount=-6  
kerning first=224 second=248 amount=-5  
kerning first=224 second=231 amount=-5  
kerning first=224 second=232 amount=-6  
kerning first=224 second=233 amount=-6  
kerning first=224 second=234 amount=-6  
kerning first=224 second=235 amount=-6  
kerning first=224 second=242 amount=-5  
kerning first=224 second=243 amount=-5  
kerning first=224 second=244 amount=-5  
kerning first=224 second=245 amount=-5  
kerning first=224 second=246 amount=-5  
kerning first=224 second=249 amount=-8  
kerning first=224 second=250 amount=-8  
kerning first=224 second=251 amount=-8  
kerning first=224 second=252 amount=-8  
kerning first=224 second=255 amount=-7  
kerning first=225 second=98  amount=-3  
kerning first=225 second=99  amount=-5  
kerning first=225 second=100 amount=-7  
kerning first=225 second=101 amount=-6  
kerning first=225 second=102 amount=-7  
kerning first=225 second=103 amount=-4  
kerning first=225 second=104 amount=-5  
kerning first=225 second=107 amount=-5  
kerning first=225 second=109 amount=-7  
kerning first=225 second=110 amount=-6  
kerning first=225 second=111 amount=-5  
kerning first=225 second=112 amount=-6  
kerning first=225 second=113 amount=-5  
kerning first=225 second=114 amount=-7  
kerning first=225 second=116 amount=-7  
kerning first=225 second=117 amount=-8  
kerning first=225 second=118 amount=-7  
kerning first=225 second=119 amount=-7  
kerning first=225 second=120 amount=-4  
kerning first=225 second=121 amount=-7  
kerning first=227 second=250 amount=-8  
kerning first=225 second=230 amount=-6  
kerning first=225 second=248 amount=-5  
kerning first=225 second=231 amount=-5  
kerning first=225 second=232 amount=-6  
kerning first=225 second=233 amount=-6  
kerning first=225 second=234 amount=-6  
kerning first=225 second=235 amount=-6  
kerning first=225 second=242 amount=-5  
kerning first=225 second=243 amount=-5  
kerning first=225 second=244 amount=-5  
kerning first=225 second=245 amount=-5  
kerning first=225 second=246 amount=-5  
kerning first=225 second=249 amount=-8  
kerning first=225 second=250 amount=-8  
kerning first=225 second=251 amount=-8  
kerning first=225 second=252 amount=-8  
kerning first=225 second=255 amount=-7  
kerning first=226 second=98  amount=-3  
kerning first=226 second=99  amount=-5  
kerning first=226 second=100 amount=-7  
kerning first=226 second=101 amount=-6  
kerning first=226 second=102 amount=-7  
kerning first=226 second=103 amount=-4  
kerning first=226 second=104 amount=-5  
kerning first=226 second=107 amount=-5  
kerning first=226 second=109 amount=-7  
kerning first=226 second=110 amount=-6  
kerning first=226 second=111 amount=-5  
kerning first=226 second=112 amount=-6  
kerning first=226 second=113 amount=-5  
kerning first=226 second=114 amount=-7  
kerning first=226 second=116 amount=-7  
kerning first=226 second=117 amount=-8  
kerning first=226 second=118 amount=-7  
kerning first=226 second=119 amount=-7  
kerning first=226 second=120 amount=-4  
kerning first=226 second=121 amount=-7  
kerning first=227 second=249 amount=-8  
kerning first=226 second=230 amount=-6  
kerning first=226 second=248 amount=-5  
kerning first=226 second=231 amount=-5  
kerning first=226 second=232 amount=-6  
kerning first=226 second=233 amount=-6  
kerning first=226 second=234 amount=-6  
kerning first=226 second=235 amount=-6  
kerning first=226 second=242 amount=-5  
kerning first=226 second=243 amount=-5  
kerning first=226 second=244 amount=-5  
kerning first=226 second=245 amount=-5  
kerning first=226 second=246 amount=-5  
kerning first=226 second=249 amount=-8  
kerning first=226 second=250 amount=-8  
kerning first=226 second=251 amount=-8  
kerning first=226 second=252 amount=-8  
kerning first=226 second=255 amount=-7  
kerning first=227 second=98  amount=-3  
kerning first=227 second=99  amount=-5  
kerning first=227 second=100 amount=-7  
kerning first=227 second=101 amount=-6  
kerning first=227 second=102 amount=-7  
kerning first=227 second=103 amount=-4  
kerning first=227 second=104 amount=-5  
kerning first=227 second=107 amount=-5  
kerning first=227 second=109 amount=-7  
kerning first=227 second=110 amount=-6  
kerning first=227 second=111 amount=-5  
kerning first=227 second=112 amount=-6  
kerning first=227 second=113 amount=-5  
kerning first=227 second=114 amount=-7  
kerning first=227 second=116 amount=-7  
kerning first=227 second=117 amount=-8  
kerning first=227 second=118 amount=-7  
kerning first=227 second=119 amount=-7  
kerning first=227 second=120 amount=-4  
kerning first=227 second=121 amount=-7  
kerning first=227 second=246 amount=-5  
kerning first=227 second=230 amount=-6  
kerning first=227 second=248 amount=-5  
kerning first=227 second=231 amount=-5  
kerning first=227 second=232 amount=-6  
kerning first=227 second=233 amount=-6  
kerning first=227 second=234 amount=-6  
kerning first=227 second=235 amount=-6  
kerning first=227 second=242 amount=-5  
kerning first=227 second=243 amount=-5  
kerning first=227 second=244 amount=-5  
kerning first=227 second=245 amount=-5  
